digraph "var::setSecond"
{
  edge [fontname="Helvetica",fontsize="10",labelfontname="Helvetica",labelfontsize="10"];
  node [fontname="Helvetica",fontsize="10",shape=record];
  rankdir="LR";
  Node1 [label="var::setSecond",height=0.2,width=0.4,color="black", fillcolor="grey75", style="filled" fontcolor="black"];
  Node1 -> Node2 [color="midnightblue",fontsize="10",style="solid"];
  Node2 [label="Exception::errorOperator",height=0.2,width=0.4,color="black", fillcolor="white", style="filled",URL="$classException.html#a172fe610de9a3d076daa74d38d061ccd",tooltip="Predefined type of exception. "];
  Node2 -> Node3 [color="midnightblue",fontsize="10",style="solid"];
  Node3 [label="Exception::Exception",height=0.2,width=0.4,color="black", fillcolor="white", style="filled",URL="$classException.html#a1b78336bb26edf8e784783cc150c5801",tooltip="Default constructor. "];
  Node1 -> Node4 [color="midnightblue",fontsize="10",style="solid"];
  Node4 [label="var::typeName",height=0.2,width=0.4,color="black", fillcolor="white", style="filled",URL="$classvar.html#aea608853f068018954a04e6592b208a3",tooltip="Get the type name generated by typeid(). "];
}
