digraph "Empty"
{
  edge [fontname="Helvetica",fontsize="10",labelfontname="Helvetica",labelfontsize="10"];
  node [fontname="Helvetica",fontsize="10",shape=record];
  Node1 [label="{Empty\n||}",height=0.2,width=0.4,color="black", fillcolor="grey75", style="filled" fontcolor="black"];
}
