digraph "RtlComplex"
{
  edge [fontname="Helvetica",fontsize="10",labelfontname="Helvetica",labelfontsize="10"];
  node [fontname="Helvetica",fontsize="10",shape=record];
  Node1 [label="{RtlComplex\n|+ re\l+ im\l|+ RtlComplex()\l+ RtlComplex()\l+ RtlComplex()\l+ RtlComplex()\l+ operator=()\l+ operator+()\l+ operator-()\l+ operator*()\l+ operator/()\l+ conjugate()\land 11 more...\l}",height=0.2,width=0.4,color="black", fillcolor="grey75", style="filled" fontcolor="black"];
}
