digraph "Exception::errorCallWithoutProc"
{
  edge [fontname="Helvetica",fontsize="10",labelfontname="Helvetica",labelfontsize="10"];
  node [fontname="Helvetica",fontsize="10",shape=record];
  rankdir="LR";
  Node1 [label="Exception::errorCallWithoutProc",height=0.2,width=0.4,color="black", fillcolor="grey75", style="filled" fontcolor="black"];
  Node1 -> Node2 [color="midnightblue",fontsize="10",style="solid"];
  Node2 [label="Exception::Exception",height=0.2,width=0.4,color="black", fillcolor="white", style="filled",URL="$classException.html#a1b78336bb26edf8e784783cc150c5801",tooltip="Default constructor. "];
}
