digraph "Interpreter::_Expression"
{
  edge [fontname="Helvetica",fontsize="10",labelfontname="Helvetica",labelfontsize="10"];
  node [fontname="Helvetica",fontsize="10",shape=record];
  rankdir="LR";
  Node1 [label="Interpreter::_Expression",height=0.2,width=0.4,color="black", fillcolor="grey75", style="filled" fontcolor="black"];
  Node1 -> Node2 [color="midnightblue",fontsize="10",style="solid"];
  Node2 [label="Environment::getVar",height=0.2,width=0.4,color="black", fillcolor="white", style="filled",URL="$classEnvironment.html#af3245a20c50aedc87568194a1034de4d",tooltip="Get a variable with a specific name from the environment. "];
  Node2 -> Node3 [color="midnightblue",fontsize="10",style="solid"];
  Node3 [label="Exception::errorUnknownId",height=0.2,width=0.4,color="black", fillcolor="white", style="filled",URL="$classException.html#a58dba37c2a7a55192751ca45754eb737",tooltip="Predefined type of exception. "];
  Node3 -> Node4 [color="midnightblue",fontsize="10",style="solid"];
  Node4 [label="Exception::Exception",height=0.2,width=0.4,color="black", fillcolor="white", style="filled",URL="$classException.html#a1b78336bb26edf8e784783cc150c5801",tooltip="Default constructor. "];
}
