\relax 
\providecommand\HyperFirstAtBeginDocument{\AtBeginDocument}
\HyperFirstAtBeginDocument{\ifx\hyper@anchor\@undefined
\global\let\oldcontentsline\contentsline
\gdef\contentsline#1#2#3#4{\oldcontentsline{#1}{#2}{#3}}
\global\let\oldnewlabel\newlabel
\gdef\newlabel#1#2{\newlabelxx{#1}#2}
\gdef\newlabelxx#1#2#3#4#5#6{\oldnewlabel{#1}{{#2}{#3}}}
\AtEndDocument{\ifx\hyper@anchor\@undefined
\let\contentsline\oldcontentsline
\let\newlabel\oldnewlabel
\fi}
\fi}
\global\let\hyper@last\relax 
\gdef\HyperFirstAtBeginDocument#1{#1}
\providecommand\HyField@AuxAddToFields[1]{}
\@writefile{toc}{\contentsline {chapter}{\numberline {1}Class Index}{1}{chapter.1}}
\@writefile{lof}{\addvspace {10\p@ }}
\@writefile{lot}{\addvspace {10\p@ }}
\@writefile{toc}{\contentsline {section}{\numberline {1.1}Class List}{1}{section.1.1}}
\@writefile{toc}{\contentsline {chapter}{\numberline {2}Class Documentation}{3}{chapter.2}}
\@writefile{lof}{\addvspace {10\p@ }}
\@writefile{lot}{\addvspace {10\p@ }}
\@writefile{toc}{\contentsline {section}{\numberline {2.1}Build\discretionary {-}{}{}In Class Reference}{3}{section.2.1}}
\newlabel{classBuildIn}{{2.1}{3}{Build\-In Class Reference\relax }{section.2.1}{}}
\newlabel{classBuildIn_a94c14d0dd22cf442ced5d7487bf4cdc6}{{2.1}{3}{Static Public Attributes\relax }{section*.3}{}}
\@writefile{toc}{\contentsline {subsection}{\numberline {2.1.1}Detailed Description}{3}{subsection.2.1.1}}
\@writefile{toc}{\contentsline {subsection}{\numberline {2.1.2}Member Function Documentation}{3}{subsection.2.1.2}}
\@writefile{toc}{\contentsline {subsubsection}{\numberline {2.1.2.1}run}{3}{subsubsection.2.1.2.1}}
\newlabel{classBuildIn_a5c1a88d22799c8239772fef3215b8a76}{{2.1.2.1}{3}{run\relax }{subsubsection.2.1.2.1}{}}
\@writefile{toc}{\contentsline {subsubsection}{\numberline {2.1.2.2}set\discretionary {-}{}{}Env}{3}{subsubsection.2.1.2.2}}
\newlabel{classBuildIn_af2585a20c3406041cccc7ada1c0a06d2}{{2.1.2.2}{3}{set\-Env\relax }{subsubsection.2.1.2.2}{}}
\@writefile{toc}{\contentsline {section}{\numberline {2.2}Complex Class Reference}{4}{section.2.2}}
\newlabel{classComplex}{{2.2}{4}{Complex Class Reference\relax }{section.2.2}{}}
\newlabel{classComplex_a1a7bb66f140c2b281f27de9d3acb9130}{{2.2}{4}{Public Member Functions\relax }{section*.4}{}}
\newlabel{classComplex_ae7126a7caf66c29efac076b2cc7a3bb4}{{2.2}{4}{Public Member Functions\relax }{section*.4}{}}
\newlabel{classComplex_a2673ec91285d364ca5d37d79c23345d4}{{2.2}{4}{Public Member Functions\relax }{section*.4}{}}
\newlabel{classComplex_a7f57d5ac29cc113ba0dd842840166095}{{2.2}{4}{Public Member Functions\relax }{section*.4}{}}
\newlabel{classComplex_a7b52dac99a1ef6e7526d9c6acd9d5669}{{2.2}{4}{Public Member Functions\relax }{section*.4}{}}
\newlabel{classComplex_a1454cdb7aef0ace31ab889cc6076785e}{{2.2}{4}{Public Member Functions\relax }{section*.4}{}}
\newlabel{classComplex_ad43fbc2f83ee3099b50acf13f7484359}{{2.2}{4}{Public Member Functions\relax }{section*.4}{}}
\newlabel{classComplex_a1be69e2eecf9543b63831910744de143}{{2.2}{4}{Public Member Functions\relax }{section*.4}{}}
\newlabel{classComplex_ac000609d371d53c014fb07fac0988480}{{2.2}{4}{Public Member Functions\relax }{section*.4}{}}
\newlabel{classComplex_ae625f5e83113f9c997ea21e36a3600bf}{{2.2}{4}{Public Member Functions\relax }{section*.4}{}}
\newlabel{classComplex_acce41cf26cf138fef7e592ce68c9002b}{{2.2}{4}{Public Member Functions\relax }{section*.4}{}}
\newlabel{classComplex_ae538976f4be1f705831d7c6ad29b5bf0}{{2.2}{4}{Public Member Functions\relax }{section*.4}{}}
\newlabel{classComplex_a580d21b66dff2b10c5472b56e15e76f8}{{2.2}{4}{Public Member Functions\relax }{section*.4}{}}
\newlabel{classComplex_a4b406cb19454d6d84c5f1fd44d137200}{{2.2}{4}{Public Member Functions\relax }{section*.4}{}}
\newlabel{classComplex_a7b8c7434631a2aa68025f2938ff8ba21}{{2.2}{4}{Public Member Functions\relax }{section*.4}{}}
\newlabel{classComplex_a018812bae154c322347dc319acb0b647}{{2.2}{5}{Public Member Functions\relax }{section*.4}{}}
\newlabel{classComplex_a8ca36fdc44891b290c451c4b77291231}{{2.2}{5}{Public Member Functions\relax }{section*.4}{}}
\newlabel{classComplex_acb36bf2081bf9fd837f176114ed88e90}{{2.2}{5}{Public Member Functions\relax }{section*.4}{}}
\newlabel{classComplex_a0ac4a199938e85f0514ecf7912709626}{{2.2}{5}{Public Attributes\relax }{section*.5}{}}
\newlabel{classComplex_ad229a5a15f00442c50353cdbfcd3b4ba}{{2.2}{5}{Public Attributes\relax }{section*.5}{}}
\@writefile{toc}{\contentsline {subsection}{\numberline {2.2.1}Detailed Description}{5}{subsection.2.2.1}}
\@writefile{toc}{\contentsline {subsection}{\numberline {2.2.2}Constructor \& Destructor Documentation}{5}{subsection.2.2.2}}
\@writefile{toc}{\contentsline {subsubsection}{\numberline {2.2.2.1}Complex}{5}{subsubsection.2.2.2.1}}
\newlabel{classComplex_a43b9f07cdf697c71b5fd506a6cc80b8f}{{2.2.2.1}{5}{Complex\relax }{subsubsection.2.2.2.1}{}}
\@writefile{toc}{\contentsline {subsubsection}{\numberline {2.2.2.2}Complex}{5}{subsubsection.2.2.2.2}}
\newlabel{classComplex_a2cd201aac0c55a499aaf5786e75bbb9f}{{2.2.2.2}{5}{Complex\relax }{subsubsection.2.2.2.2}{}}
\@writefile{toc}{\contentsline {subsubsection}{\numberline {2.2.2.3}Complex}{5}{subsubsection.2.2.2.3}}
\newlabel{classComplex_ac810d7b7553fed11c98637ed6d959e8e}{{2.2.2.3}{5}{Complex\relax }{subsubsection.2.2.2.3}{}}
\@writefile{toc}{\contentsline {subsubsection}{\numberline {2.2.2.4}Complex}{5}{subsubsection.2.2.2.4}}
\newlabel{classComplex_adbde2c3facffaf092579de172e47af8e}{{2.2.2.4}{5}{Complex\relax }{subsubsection.2.2.2.4}{}}
\@writefile{toc}{\contentsline {subsubsection}{\numberline {2.2.2.5}Complex}{5}{subsubsection.2.2.2.5}}
\newlabel{classComplex_a7cb90174f3bf673b4ee13f6df42d9607}{{2.2.2.5}{5}{Complex\relax }{subsubsection.2.2.2.5}{}}
\@writefile{toc}{\contentsline {section}{\numberline {2.3}Empty Class Reference}{6}{section.2.3}}
\newlabel{classEmpty}{{2.3}{6}{Empty Class Reference\relax }{section.2.3}{}}
\@writefile{toc}{\contentsline {subsection}{\numberline {2.3.1}Detailed Description}{6}{subsection.2.3.1}}
\@writefile{toc}{\contentsline {section}{\numberline {2.4}Empty\discretionary {-}{}{}List Class Reference}{6}{section.2.4}}
\newlabel{classEmptyList}{{2.4}{6}{Empty\-List Class Reference\relax }{section.2.4}{}}
\@writefile{toc}{\contentsline {subsection}{\numberline {2.4.1}Detailed Description}{6}{subsection.2.4.1}}
\@writefile{toc}{\contentsline {section}{\numberline {2.5}Environment Class Reference}{6}{section.2.5}}
\newlabel{classEnvironment}{{2.5}{6}{Environment Class Reference\relax }{section.2.5}{}}
\newlabel{classEnvironment_a44665bd85a2f938f90831468cb786794}{{2.5}{7}{Public Attributes\relax }{section*.7}{}}
\@writefile{toc}{\contentsline {subsection}{\numberline {2.5.1}Detailed Description}{7}{subsection.2.5.1}}
\@writefile{toc}{\contentsline {subsection}{\numberline {2.5.2}Constructor \& Destructor Documentation}{7}{subsection.2.5.2}}
\@writefile{toc}{\contentsline {subsubsection}{\numberline {2.5.2.1}Environment}{7}{subsubsection.2.5.2.1}}
\newlabel{classEnvironment_a8b427c4448d8b7536666837521b9e83d}{{2.5.2.1}{7}{Environment\relax }{subsubsection.2.5.2.1}{}}
\@writefile{toc}{\contentsline {subsubsection}{\numberline {2.5.2.2}Environment}{7}{subsubsection.2.5.2.2}}
\newlabel{classEnvironment_a5a53e6448232d75a18fe02140bbf9b7b}{{2.5.2.2}{7}{Environment\relax }{subsubsection.2.5.2.2}{}}
\@writefile{toc}{\contentsline {subsubsection}{\numberline {2.5.2.3}Environment}{7}{subsubsection.2.5.2.3}}
\newlabel{classEnvironment_ac9815c52c09b9a0674c8d247550f4569}{{2.5.2.3}{7}{Environment\relax }{subsubsection.2.5.2.3}{}}
\@writefile{toc}{\contentsline {subsection}{\numberline {2.5.3}Member Function Documentation}{7}{subsection.2.5.3}}
\@writefile{toc}{\contentsline {subsubsection}{\numberline {2.5.3.1}add\discretionary {-}{}{}Var}{7}{subsubsection.2.5.3.1}}
\newlabel{classEnvironment_a6260dd8e29c49f5281ffdb52fcd6ee2b}{{2.5.3.1}{7}{add\-Var\relax }{subsubsection.2.5.3.1}{}}
\@writefile{toc}{\contentsline {subsubsection}{\numberline {2.5.3.2}get\discretionary {-}{}{}Var}{7}{subsubsection.2.5.3.2}}
\newlabel{classEnvironment_af3245a20c50aedc87568194a1034de4d}{{2.5.3.2}{7}{get\-Var\relax }{subsubsection.2.5.3.2}{}}
\@writefile{toc}{\contentsline {subsubsection}{\numberline {2.5.3.3}operator+}{7}{subsubsection.2.5.3.3}}
\newlabel{classEnvironment_a30a2ec9d62488c630d76756187d007c0}{{2.5.3.3}{7}{operator+\relax }{subsubsection.2.5.3.3}{}}
\@writefile{toc}{\contentsline {subsubsection}{\numberline {2.5.3.4}operator=}{8}{subsubsection.2.5.3.4}}
\newlabel{classEnvironment_aa5d55510ec179bb84b90237c7517014b}{{2.5.3.4}{8}{operator=\relax }{subsubsection.2.5.3.4}{}}
\@writefile{toc}{\contentsline {subsubsection}{\numberline {2.5.3.5}set\discretionary {-}{}{}Var}{8}{subsubsection.2.5.3.5}}
\newlabel{classEnvironment_afa028a09d6749d6cc4a7730d1ef56df5}{{2.5.3.5}{8}{set\-Var\relax }{subsubsection.2.5.3.5}{}}
\@writefile{toc}{\contentsline {section}{\numberline {2.6}Exception Class Reference}{8}{section.2.6}}
\newlabel{classException}{{2.6}{8}{Exception Class Reference\relax }{section.2.6}{}}
\newlabel{classException_ab9ce009cb432eb317c7c91a6d6c71bde}{{2.6}{8}{Public Member Functions\relax }{section*.8}{}}
\newlabel{classException_a7e23ca295a3accfb0024a28a3ef4e974}{{2.6}{9}{Public Attributes\relax }{section*.10}{}}
\newlabel{classException_a7f9ffb76aa915068bbc4ef21e17e967c}{{2.6}{9}{Static Public Attributes\relax }{section*.11}{}}
\@writefile{toc}{\contentsline {subsection}{\numberline {2.6.1}Detailed Description}{9}{subsection.2.6.1}}
\@writefile{toc}{\contentsline {subsection}{\numberline {2.6.2}Constructor \& Destructor Documentation}{9}{subsection.2.6.2}}
\@writefile{toc}{\contentsline {subsubsection}{\numberline {2.6.2.1}Exception}{9}{subsubsection.2.6.2.1}}
\newlabel{classException_a1b78336bb26edf8e784783cc150c5801}{{2.6.2.1}{9}{Exception\relax }{subsubsection.2.6.2.1}{}}
\@writefile{toc}{\contentsline {subsubsection}{\numberline {2.6.2.2}Exception}{9}{subsubsection.2.6.2.2}}
\newlabel{classException_af686867a2c06e4069738c85d328f3f25}{{2.6.2.2}{9}{Exception\relax }{subsubsection.2.6.2.2}{}}
\@writefile{toc}{\contentsline {subsection}{\numberline {2.6.3}Member Function Documentation}{9}{subsection.2.6.3}}
\@writefile{toc}{\contentsline {subsubsection}{\numberline {2.6.3.1}error\discretionary {-}{}{}Arg\discretionary {-}{}{}Num\discretionary {-}{}{}Lower}{9}{subsubsection.2.6.3.1}}
\newlabel{classException_ac59ae2883e172805c62aafee16ac6a6d}{{2.6.3.1}{9}{error\-Arg\-Num\-Lower\relax }{subsubsection.2.6.3.1}{}}
\@writefile{toc}{\contentsline {subsubsection}{\numberline {2.6.3.2}error\discretionary {-}{}{}Arg\discretionary {-}{}{}Num\discretionary {-}{}{}Upper}{10}{subsubsection.2.6.3.2}}
\newlabel{classException_a8d9dbf8ff32f990d3c177fcf544e5103}{{2.6.3.2}{10}{error\-Arg\-Num\-Upper\relax }{subsubsection.2.6.3.2}{}}
\@writefile{toc}{\contentsline {subsubsection}{\numberline {2.6.3.3}error\discretionary {-}{}{}Arg\discretionary {-}{}{}Type}{10}{subsubsection.2.6.3.3}}
\newlabel{classException_a2dd4813b44b3deb82e43c7b2c122b620}{{2.6.3.3}{10}{error\-Arg\-Type\relax }{subsubsection.2.6.3.3}{}}
\@writefile{toc}{\contentsline {subsubsection}{\numberline {2.6.3.4}error\discretionary {-}{}{}Arg\discretionary {-}{}{}Value}{10}{subsubsection.2.6.3.4}}
\newlabel{classException_a837098426332c702c233b8cd316fd65c}{{2.6.3.4}{10}{error\-Arg\-Value\relax }{subsubsection.2.6.3.4}{}}
\@writefile{toc}{\contentsline {subsubsection}{\numberline {2.6.3.5}error\discretionary {-}{}{}Base}{10}{subsubsection.2.6.3.5}}
\newlabel{classException_a430426e3721b80b33c3760d162c375cf}{{2.6.3.5}{10}{error\-Base\relax }{subsubsection.2.6.3.5}{}}
\@writefile{toc}{\contentsline {subsubsection}{\numberline {2.6.3.6}error\discretionary {-}{}{}Call\discretionary {-}{}{}Without\discretionary {-}{}{}Proc}{10}{subsubsection.2.6.3.6}}
\newlabel{classException_aad114108e6e74d93ff1b7a7f6b89482f}{{2.6.3.6}{10}{error\-Call\-Without\-Proc\relax }{subsubsection.2.6.3.6}{}}
\@writefile{toc}{\contentsline {subsubsection}{\numberline {2.6.3.7}error\discretionary {-}{}{}Convert}{10}{subsubsection.2.6.3.7}}
\newlabel{classException_ab9583ca3756cea52f4ac316a79e529dd}{{2.6.3.7}{10}{error\-Convert\relax }{subsubsection.2.6.3.7}{}}
\@writefile{toc}{\contentsline {subsubsection}{\numberline {2.6.3.8}error\discretionary {-}{}{}Divide\discretionary {-}{}{}By\discretionary {-}{}{}Zero}{10}{subsubsection.2.6.3.8}}
\newlabel{classException_a28a35bd2b898758b32295cf5f69b8e6e}{{2.6.3.8}{10}{error\-Divide\-By\-Zero\relax }{subsubsection.2.6.3.8}{}}
\@writefile{toc}{\contentsline {subsubsection}{\numberline {2.6.3.9}error\discretionary {-}{}{}Index}{10}{subsubsection.2.6.3.9}}
\newlabel{classException_add8782aa47f5abd1538ee9d475049c9d}{{2.6.3.9}{10}{error\-Index\relax }{subsubsection.2.6.3.9}{}}
\@writefile{toc}{\contentsline {subsubsection}{\numberline {2.6.3.10}error\discretionary {-}{}{}Invaild\discretionary {-}{}{}Call}{10}{subsubsection.2.6.3.10}}
\newlabel{classException_ab6867d2ac0b0abbd6c55de65507b0f31}{{2.6.3.10}{10}{error\-Invaild\-Call\relax }{subsubsection.2.6.3.10}{}}
\@writefile{toc}{\contentsline {subsubsection}{\numberline {2.6.3.11}error\discretionary {-}{}{}Operator}{11}{subsubsection.2.6.3.11}}
\newlabel{classException_a172fe610de9a3d076daa74d38d061ccd}{{2.6.3.11}{11}{error\-Operator\relax }{subsubsection.2.6.3.11}{}}
\@writefile{toc}{\contentsline {subsubsection}{\numberline {2.6.3.12}error\discretionary {-}{}{}Operator}{11}{subsubsection.2.6.3.12}}
\newlabel{classException_a4ca48aaedcdba147677e6b1bb2ba0250}{{2.6.3.12}{11}{error\-Operator\relax }{subsubsection.2.6.3.12}{}}
\@writefile{toc}{\contentsline {subsubsection}{\numberline {2.6.3.13}error\discretionary {-}{}{}Set\discretionary {-}{}{}Unknown\discretionary {-}{}{}Id}{11}{subsubsection.2.6.3.13}}
\newlabel{classException_a65ec82380d9bd7483726f54b1af1d8ac}{{2.6.3.13}{11}{error\-Set\-Unknown\-Id\relax }{subsubsection.2.6.3.13}{}}
\@writefile{toc}{\contentsline {subsubsection}{\numberline {2.6.3.14}error\discretionary {-}{}{}Unknown\discretionary {-}{}{}Id}{11}{subsubsection.2.6.3.14}}
\newlabel{classException_a58dba37c2a7a55192751ca45754eb737}{{2.6.3.14}{11}{error\-Unknown\-Id\relax }{subsubsection.2.6.3.14}{}}
\@writefile{toc}{\contentsline {section}{\numberline {2.7}Interactive Class Reference}{11}{section.2.7}}
\newlabel{classInteractive}{{2.7}{11}{Interactive Class Reference\relax }{section.2.7}{}}
\newlabel{classInteractive_a31c58ba847b422a8eefe2558991b883a}{{2.7}{11}{Public Member Functions\relax }{section*.12}{}}
\newlabel{classInteractive_a5203d688664f011524a30719c3fc2834}{{2.7}{11}{Public Member Functions\relax }{section*.12}{}}
\@writefile{toc}{\contentsline {subsection}{\numberline {2.7.1}Detailed Description}{11}{subsection.2.7.1}}
\@writefile{toc}{\contentsline {subsection}{\numberline {2.7.2}Member Function Documentation}{11}{subsection.2.7.2}}
\@writefile{toc}{\contentsline {subsubsection}{\numberline {2.7.2.1}entry}{11}{subsubsection.2.7.2.1}}
\newlabel{classInteractive_a3961710a4b2f49e1c410d6712990e85f}{{2.7.2.1}{11}{entry\relax }{subsubsection.2.7.2.1}{}}
\@writefile{toc}{\contentsline {section}{\numberline {2.8}Interpreter Class Reference}{12}{section.2.8}}
\newlabel{classInterpreter}{{2.8}{12}{Interpreter Class Reference\relax }{section.2.8}{}}
\newlabel{classInterpreter_a0f96b57f8126e2b5bc63390121e4b5b1}{{2.8}{12}{Public Member Functions\relax }{section*.13}{}}
\newlabel{classInterpreter_a66b6b7e0c9460ca8dc3abba64fb08aa3}{{2.8}{12}{Static Public Member Functions\relax }{section*.14}{}}
\newlabel{classInterpreter_a8cbd9ec6c9f21e6425a67e6871429b8f}{{2.8}{13}{Static Public Member Functions\relax }{section*.14}{}}
\newlabel{classInterpreter_a995c320849a3c72aff3ed577be3746d8}{{2.8}{15}{Static Public Member Functions\relax }{section*.14}{}}
\newlabel{classInterpreter_aabb0e1e9d6c0464fd7c5dfb31d2155fa}{{2.8}{15}{Static Public Member Functions\relax }{section*.14}{}}
\newlabel{classInterpreter_ad798571150396a6eff5ba89493d6996e}{{2.8}{15}{Static Public Member Functions\relax }{section*.14}{}}
\newlabel{classInterpreter_aa5060798e0f3fe467ff4fe4b32950b20}{{2.8}{15}{Static Public Member Functions\relax }{section*.14}{}}
\newlabel{classInterpreter_a59dbcf8d1b39f074e372ec357b931c92}{{2.8}{15}{Static Public Member Functions\relax }{section*.14}{}}
\newlabel{classInterpreter_acc2eb173f09dd8fe4e4e70024b6a365b}{{2.8}{15}{Static Public Member Functions\relax }{section*.14}{}}
\newlabel{classInterpreter_a9d19b66c5e942ab357e26ab3ba6c4c14}{{2.8}{15}{Static Public Member Functions\relax }{section*.14}{}}
\newlabel{classInterpreter_a57d416d247bff281d8f9b56f8133fbfd}{{2.8}{15}{Static Public Member Functions\relax }{section*.14}{}}
\newlabel{classInterpreter_a6a8fd0bbdb1df518a8e5e2e506d1d4b0}{{2.8}{15}{Static Public Member Functions\relax }{section*.14}{}}
\newlabel{classInterpreter_ad3f78e4e1a3beacb124df6dba3ddee5e}{{2.8}{16}{Static Public Attributes\relax }{section*.15}{}}
\newlabel{classInterpreter_acd978dd8d87a77a1acdff56fdf67bb96}{{2.8}{16}{Static Public Attributes\relax }{section*.15}{}}
\newlabel{classInterpreter_aa55d70cd03794c7ccffb423bc052f05e}{{2.8}{16}{Static Public Attributes\relax }{section*.15}{}}
\newlabel{classInterpreter_a2d50e6f4e1367136d34677d0660da942}{{2.8}{16}{Static Public Attributes\relax }{section*.15}{}}
\@writefile{toc}{\contentsline {subsection}{\numberline {2.8.1}Detailed Description}{16}{subsection.2.8.1}}
\@writefile{toc}{\contentsline {subsection}{\numberline {2.8.2}Constructor \& Destructor Documentation}{16}{subsection.2.8.2}}
\@writefile{toc}{\contentsline {subsubsection}{\numberline {2.8.2.1}Interpreter}{16}{subsubsection.2.8.2.1}}
\newlabel{classInterpreter_a9faf0dca72cd27223e5c447b580de2a5}{{2.8.2.1}{16}{Interpreter\relax }{subsubsection.2.8.2.1}{}}
\@writefile{toc}{\contentsline {subsection}{\numberline {2.8.3}Member Function Documentation}{16}{subsection.2.8.3}}
\@writefile{toc}{\contentsline {subsubsection}{\numberline {2.8.3.1}\discretionary {-}{}{}\_\discretionary {-}{}{}\discretionary {-}{}{}Abbreviation}{16}{subsubsection.2.8.3.1}}
\newlabel{classInterpreter_ae18d98154a26e8f5217d8099b52dd9bb}{{2.8.3.1}{16}{\-\_\-\-Abbreviation\relax }{subsubsection.2.8.3.1}{}}
\@writefile{toc}{\contentsline {subsubsection}{\numberline {2.8.3.2}\discretionary {-}{}{}\_\discretionary {-}{}{}\discretionary {-}{}{}Abbrev\discretionary {-}{}{}Prefix}{16}{subsubsection.2.8.3.2}}
\newlabel{classInterpreter_a89da9899b67f00fcd5cb0e76fe1ad561}{{2.8.3.2}{16}{\-\_\-\-Abbrev\-Prefix\relax }{subsubsection.2.8.3.2}{}}
\@writefile{toc}{\contentsline {subsubsection}{\numberline {2.8.3.3}\discretionary {-}{}{}\_\discretionary {-}{}{}\discretionary {-}{}{}Alternate}{16}{subsubsection.2.8.3.3}}
\newlabel{classInterpreter_a381d20a92078bb38f6c803d7b6036ad1}{{2.8.3.3}{16}{\-\_\-\-Alternate\relax }{subsubsection.2.8.3.3}{}}
\@writefile{toc}{\contentsline {subsubsection}{\numberline {2.8.3.4}\discretionary {-}{}{}\_\discretionary {-}{}{}\discretionary {-}{}{}Assignment}{16}{subsubsection.2.8.3.4}}
\newlabel{classInterpreter_a73ffa35be77785138d934f9870935668}{{2.8.3.4}{16}{\-\_\-\-Assignment\relax }{subsubsection.2.8.3.4}{}}
\@writefile{toc}{\contentsline {subsubsection}{\numberline {2.8.3.5}\discretionary {-}{}{}\_\discretionary {-}{}{}\discretionary {-}{}{}Atmosphere}{17}{subsubsection.2.8.3.5}}
\newlabel{classInterpreter_a86e0123ae60b8a0bb11b2bc5fa6e2845}{{2.8.3.5}{17}{\-\_\-\-Atmosphere\relax }{subsubsection.2.8.3.5}{}}
\@writefile{toc}{\contentsline {subsubsection}{\numberline {2.8.3.6}\discretionary {-}{}{}\_\discretionary {-}{}{}\discretionary {-}{}{}Binding\discretionary {-}{}{}Spec}{17}{subsubsection.2.8.3.6}}
\newlabel{classInterpreter_a733c77c60e6a1053066f2112567b4a24}{{2.8.3.6}{17}{\-\_\-\-Binding\-Spec\relax }{subsubsection.2.8.3.6}{}}
\@writefile{toc}{\contentsline {subsubsection}{\numberline {2.8.3.7}\discretionary {-}{}{}\_\discretionary {-}{}{}\discretionary {-}{}{}Body}{17}{subsubsection.2.8.3.7}}
\newlabel{classInterpreter_a3e0bf9733eb1da514768c6877a1f9f0a}{{2.8.3.7}{17}{\-\_\-\-Body\relax }{subsubsection.2.8.3.7}{}}
\@writefile{toc}{\contentsline {subsubsection}{\numberline {2.8.3.8}\discretionary {-}{}{}\_\discretionary {-}{}{}\discretionary {-}{}{}Boolean}{17}{subsubsection.2.8.3.8}}
\newlabel{classInterpreter_a6fe5ea993b0783ffb3751c0fb1b08535}{{2.8.3.8}{17}{\-\_\-\-Boolean\relax }{subsubsection.2.8.3.8}{}}
\@writefile{toc}{\contentsline {subsubsection}{\numberline {2.8.3.9}\discretionary {-}{}{}\_\discretionary {-}{}{}\discretionary {-}{}{}Case\discretionary {-}{}{}Clause}{17}{subsubsection.2.8.3.9}}
\newlabel{classInterpreter_af8581cbaf6efe9c04b61ae26c8e69924}{{2.8.3.9}{17}{\-\_\-\-Case\-Clause\relax }{subsubsection.2.8.3.9}{}}
\@writefile{toc}{\contentsline {subsubsection}{\numberline {2.8.3.10}\discretionary {-}{}{}\_\discretionary {-}{}{}\discretionary {-}{}{}Character}{17}{subsubsection.2.8.3.10}}
\newlabel{classInterpreter_a6652de807d81fbc64cafa573807e6355}{{2.8.3.10}{17}{\-\_\-\-Character\relax }{subsubsection.2.8.3.10}{}}
\@writefile{toc}{\contentsline {subsubsection}{\numberline {2.8.3.11}\discretionary {-}{}{}\_\discretionary {-}{}{}\discretionary {-}{}{}Character\discretionary {-}{}{}Name}{17}{subsubsection.2.8.3.11}}
\newlabel{classInterpreter_a84c63cba9ee941fc3e7eb30d818b7077}{{2.8.3.11}{17}{\-\_\-\-Character\-Name\relax }{subsubsection.2.8.3.11}{}}
\@writefile{toc}{\contentsline {subsubsection}{\numberline {2.8.3.12}\discretionary {-}{}{}\_\discretionary {-}{}{}\discretionary {-}{}{}Command}{17}{subsubsection.2.8.3.12}}
\newlabel{classInterpreter_a08be31c62a82bc9db28dd12f4be70126}{{2.8.3.12}{17}{\-\_\-\-Command\relax }{subsubsection.2.8.3.12}{}}
\@writefile{toc}{\contentsline {subsubsection}{\numberline {2.8.3.13}\discretionary {-}{}{}\_\discretionary {-}{}{}\discretionary {-}{}{}Command\discretionary {-}{}{}Or\discretionary {-}{}{}Definition}{18}{subsubsection.2.8.3.13}}
\newlabel{classInterpreter_a0c74288aa2adcda2feaee51edfb149e8}{{2.8.3.13}{18}{\-\_\-\-Command\-Or\-Definition\relax }{subsubsection.2.8.3.13}{}}
\@writefile{toc}{\contentsline {subsubsection}{\numberline {2.8.3.14}\discretionary {-}{}{}\_\discretionary {-}{}{}\discretionary {-}{}{}Comment}{18}{subsubsection.2.8.3.14}}
\newlabel{classInterpreter_a639620ad96bf12035711d459219e2898}{{2.8.3.14}{18}{\-\_\-\-Comment\relax }{subsubsection.2.8.3.14}{}}
\@writefile{toc}{\contentsline {subsubsection}{\numberline {2.8.3.15}\discretionary {-}{}{}\_\discretionary {-}{}{}\discretionary {-}{}{}Complex\discretionary {-}{}{}R}{18}{subsubsection.2.8.3.15}}
\newlabel{classInterpreter_ac9c9b0c3ede101ad32354cacc7c677ab}{{2.8.3.15}{18}{\-\_\-\-Complex\-R\relax }{subsubsection.2.8.3.15}{}}
\@writefile{toc}{\contentsline {subsubsection}{\numberline {2.8.3.16}\discretionary {-}{}{}\_\discretionary {-}{}{}\discretionary {-}{}{}Compound\discretionary {-}{}{}Datum}{18}{subsubsection.2.8.3.16}}
\newlabel{classInterpreter_aaa8a09de88465fabafd306771deb3520}{{2.8.3.16}{18}{\-\_\-\-Compound\-Datum\relax }{subsubsection.2.8.3.16}{}}
\@writefile{toc}{\contentsline {subsubsection}{\numberline {2.8.3.17}\discretionary {-}{}{}\_\discretionary {-}{}{}\discretionary {-}{}{}Cond\discretionary {-}{}{}Clause}{18}{subsubsection.2.8.3.17}}
\newlabel{classInterpreter_a81722a771a349e2e9cbb4e994e4189ff}{{2.8.3.17}{18}{\-\_\-\-Cond\-Clause\relax }{subsubsection.2.8.3.17}{}}
\@writefile{toc}{\contentsline {subsubsection}{\numberline {2.8.3.18}\discretionary {-}{}{}\_\discretionary {-}{}{}\discretionary {-}{}{}Conditional}{18}{subsubsection.2.8.3.18}}
\newlabel{classInterpreter_a4ed5eb72f8de5016d1e0c893701fbb74}{{2.8.3.18}{18}{\-\_\-\-Conditional\relax }{subsubsection.2.8.3.18}{}}
\@writefile{toc}{\contentsline {subsubsection}{\numberline {2.8.3.19}\discretionary {-}{}{}\_\discretionary {-}{}{}\discretionary {-}{}{}Consequent}{18}{subsubsection.2.8.3.19}}
\newlabel{classInterpreter_a2456a727cbdd1d6ea679b13ca64dd177}{{2.8.3.19}{18}{\-\_\-\-Consequent\relax }{subsubsection.2.8.3.19}{}}
\@writefile{toc}{\contentsline {subsubsection}{\numberline {2.8.3.20}\discretionary {-}{}{}\_\discretionary {-}{}{}\discretionary {-}{}{}Datum}{19}{subsubsection.2.8.3.20}}
\newlabel{classInterpreter_a813f132c504175692fe76a72e68461b4}{{2.8.3.20}{19}{\-\_\-\-Datum\relax }{subsubsection.2.8.3.20}{}}
\@writefile{toc}{\contentsline {subsubsection}{\numberline {2.8.3.21}\discretionary {-}{}{}\_\discretionary {-}{}{}\discretionary {-}{}{}Decimal10}{19}{subsubsection.2.8.3.21}}
\newlabel{classInterpreter_a5f07fea116fa7dc0644ad3163bb31cb9}{{2.8.3.21}{19}{\-\_\-\-Decimal10\relax }{subsubsection.2.8.3.21}{}}
\@writefile{toc}{\contentsline {subsubsection}{\numberline {2.8.3.22}\discretionary {-}{}{}\_\discretionary {-}{}{}\discretionary {-}{}{}Def\discretionary {-}{}{}Formals}{19}{subsubsection.2.8.3.22}}
\newlabel{classInterpreter_adca25677908f69ca0859e66034b523aa}{{2.8.3.22}{19}{\-\_\-\-Def\-Formals\relax }{subsubsection.2.8.3.22}{}}
\@writefile{toc}{\contentsline {subsubsection}{\numberline {2.8.3.23}\discretionary {-}{}{}\_\discretionary {-}{}{}\discretionary {-}{}{}Definition}{19}{subsubsection.2.8.3.23}}
\newlabel{classInterpreter_a52c27fda88cb30bf234756d9c89d7478}{{2.8.3.23}{19}{\-\_\-\-Definition\relax }{subsubsection.2.8.3.23}{}}
\@writefile{toc}{\contentsline {subsubsection}{\numberline {2.8.3.24}\discretionary {-}{}{}\_\discretionary {-}{}{}\discretionary {-}{}{}Delimiter}{19}{subsubsection.2.8.3.24}}
\newlabel{classInterpreter_a26d977ef42db8c6f31c662b8d55258e7}{{2.8.3.24}{19}{\-\_\-\-Delimiter\relax }{subsubsection.2.8.3.24}{}}
\@writefile{toc}{\contentsline {subsubsection}{\numberline {2.8.3.25}\discretionary {-}{}{}\_\discretionary {-}{}{}\discretionary {-}{}{}Derived\discretionary {-}{}{}Expression}{19}{subsubsection.2.8.3.25}}
\newlabel{classInterpreter_a40d7e27360d166bb504a9d1231df2d54}{{2.8.3.25}{19}{\-\_\-\-Derived\-Expression\relax }{subsubsection.2.8.3.25}{}}
\@writefile{toc}{\contentsline {subsubsection}{\numberline {2.8.3.26}\discretionary {-}{}{}\_\discretionary {-}{}{}\discretionary {-}{}{}Digit\discretionary {-}{}{}R}{19}{subsubsection.2.8.3.26}}
\newlabel{classInterpreter_a0ed19cf50e9d112751a6b9e1796f573b}{{2.8.3.26}{19}{\-\_\-\-Digit\-R\relax }{subsubsection.2.8.3.26}{}}
\@writefile{toc}{\contentsline {subsubsection}{\numberline {2.8.3.27}\discretionary {-}{}{}\_\discretionary {-}{}{}\discretionary {-}{}{}Do\discretionary {-}{}{}Result}{19}{subsubsection.2.8.3.27}}
\newlabel{classInterpreter_a6eb55b42f56be37c2795719a9f41a12b}{{2.8.3.27}{19}{\-\_\-\-Do\-Result\relax }{subsubsection.2.8.3.27}{}}
\@writefile{toc}{\contentsline {subsubsection}{\numberline {2.8.3.28}\discretionary {-}{}{}\_\discretionary {-}{}{}\discretionary {-}{}{}Exactness}{20}{subsubsection.2.8.3.28}}
\newlabel{classInterpreter_a7b5733247ae2604c3298cd6e51f16c4f}{{2.8.3.28}{20}{\-\_\-\-Exactness\relax }{subsubsection.2.8.3.28}{}}
\@writefile{toc}{\contentsline {subsubsection}{\numberline {2.8.3.29}\discretionary {-}{}{}\_\discretionary {-}{}{}\discretionary {-}{}{}Exponent\discretionary {-}{}{}Marker}{20}{subsubsection.2.8.3.29}}
\newlabel{classInterpreter_aa8ad5977ed5a5b2b994a90282df7653d}{{2.8.3.29}{20}{\-\_\-\-Exponent\-Marker\relax }{subsubsection.2.8.3.29}{}}
\@writefile{toc}{\contentsline {subsubsection}{\numberline {2.8.3.30}\discretionary {-}{}{}\_\discretionary {-}{}{}\discretionary {-}{}{}Expression}{20}{subsubsection.2.8.3.30}}
\newlabel{classInterpreter_aa46038a51e570ddcb743a19acb02e181}{{2.8.3.30}{20}{\-\_\-\-Expression\relax }{subsubsection.2.8.3.30}{}}
\@writefile{toc}{\contentsline {subsubsection}{\numberline {2.8.3.31}\discretionary {-}{}{}\_\discretionary {-}{}{}\discretionary {-}{}{}Expression\discretionary {-}{}{}Keyword}{20}{subsubsection.2.8.3.31}}
\newlabel{classInterpreter_ad6e0abaa31c895a5dda9c1350890b239}{{2.8.3.31}{20}{\-\_\-\-Expression\-Keyword\relax }{subsubsection.2.8.3.31}{}}
\@writefile{toc}{\contentsline {subsubsection}{\numberline {2.8.3.32}\discretionary {-}{}{}\_\discretionary {-}{}{}\discretionary {-}{}{}Formals}{20}{subsubsection.2.8.3.32}}
\newlabel{classInterpreter_ae3f7794071e2a9c3901b62da53052621}{{2.8.3.32}{20}{\-\_\-\-Formals\relax }{subsubsection.2.8.3.32}{}}
\@writefile{toc}{\contentsline {subsubsection}{\numberline {2.8.3.33}\discretionary {-}{}{}\_\discretionary {-}{}{}\discretionary {-}{}{}Identifier}{20}{subsubsection.2.8.3.33}}
\newlabel{classInterpreter_a86ad40278d4a861ea764967f0ebcf99b}{{2.8.3.33}{20}{\-\_\-\-Identifier\relax }{subsubsection.2.8.3.33}{}}
\@writefile{toc}{\contentsline {subsubsection}{\numberline {2.8.3.34}\discretionary {-}{}{}\_\discretionary {-}{}{}\discretionary {-}{}{}Init}{20}{subsubsection.2.8.3.34}}
\newlabel{classInterpreter_a1bbc51865db48cc1a42ca7e758dd8c9f}{{2.8.3.34}{20}{\-\_\-\-Init\relax }{subsubsection.2.8.3.34}{}}
\@writefile{toc}{\contentsline {subsubsection}{\numberline {2.8.3.35}\discretionary {-}{}{}\_\discretionary {-}{}{}\discretionary {-}{}{}Initial}{21}{subsubsection.2.8.3.35}}
\newlabel{classInterpreter_abee69de704d30aefd9b4cab3aebb477c}{{2.8.3.35}{21}{\-\_\-\-Initial\relax }{subsubsection.2.8.3.35}{}}
\@writefile{toc}{\contentsline {subsubsection}{\numberline {2.8.3.36}\discretionary {-}{}{}\_\discretionary {-}{}{}\discretionary {-}{}{}Intertoken\discretionary {-}{}{}Space}{21}{subsubsection.2.8.3.36}}
\newlabel{classInterpreter_af7f585c0f86611765fd3bcab5be430a0}{{2.8.3.36}{21}{\-\_\-\-Intertoken\-Space\relax }{subsubsection.2.8.3.36}{}}
\@writefile{toc}{\contentsline {subsubsection}{\numberline {2.8.3.37}\discretionary {-}{}{}\_\discretionary {-}{}{}\discretionary {-}{}{}Iteration\discretionary {-}{}{}Spec}{21}{subsubsection.2.8.3.37}}
\newlabel{classInterpreter_abe116c382dfdd4146046ac1b4169dc9c}{{2.8.3.37}{21}{\-\_\-\-Iteration\-Spec\relax }{subsubsection.2.8.3.37}{}}
\@writefile{toc}{\contentsline {subsubsection}{\numberline {2.8.3.38}\discretionary {-}{}{}\_\discretionary {-}{}{}\discretionary {-}{}{}Keyword}{21}{subsubsection.2.8.3.38}}
\newlabel{classInterpreter_acf72a0fa7561dacfa07d858b76fcd265}{{2.8.3.38}{21}{\-\_\-\-Keyword\relax }{subsubsection.2.8.3.38}{}}
\@writefile{toc}{\contentsline {subsubsection}{\numberline {2.8.3.39}\discretionary {-}{}{}\_\discretionary {-}{}{}\discretionary {-}{}{}Lambda\discretionary {-}{}{}Expression}{21}{subsubsection.2.8.3.39}}
\newlabel{classInterpreter_a91db990ce7723f91d51e3a6d69ef3736}{{2.8.3.39}{21}{\-\_\-\-Lambda\-Expression\relax }{subsubsection.2.8.3.39}{}}
\@writefile{toc}{\contentsline {subsubsection}{\numberline {2.8.3.40}\discretionary {-}{}{}\_\discretionary {-}{}{}\discretionary {-}{}{}Letter}{21}{subsubsection.2.8.3.40}}
\newlabel{classInterpreter_a081f68dee2e680bb5a904de1f0c6a5c7}{{2.8.3.40}{21}{\-\_\-\-Letter\relax }{subsubsection.2.8.3.40}{}}
\@writefile{toc}{\contentsline {subsubsection}{\numberline {2.8.3.41}\discretionary {-}{}{}\_\discretionary {-}{}{}\discretionary {-}{}{}List}{21}{subsubsection.2.8.3.41}}
\newlabel{classInterpreter_ac9dc39b8a1496f414e6691331a4fb3c2}{{2.8.3.41}{21}{\-\_\-\-List\relax }{subsubsection.2.8.3.41}{}}
\@writefile{toc}{\contentsline {subsubsection}{\numberline {2.8.3.42}\discretionary {-}{}{}\_\discretionary {-}{}{}\discretionary {-}{}{}Literal}{21}{subsubsection.2.8.3.42}}
\newlabel{classInterpreter_a2b59b7bee60dba179c3aa8e9ce98191b}{{2.8.3.42}{21}{\-\_\-\-Literal\relax }{subsubsection.2.8.3.42}{}}
\@writefile{toc}{\contentsline {subsubsection}{\numberline {2.8.3.43}\discretionary {-}{}{}\_\discretionary {-}{}{}\discretionary {-}{}{}Macro\discretionary {-}{}{}Block}{22}{subsubsection.2.8.3.43}}
\newlabel{classInterpreter_a4f7e9e9378ef64d38ca2342142b51e55}{{2.8.3.43}{22}{\-\_\-\-Macro\-Block\relax }{subsubsection.2.8.3.43}{}}
\@writefile{toc}{\contentsline {subsubsection}{\numberline {2.8.3.44}\discretionary {-}{}{}\_\discretionary {-}{}{}\discretionary {-}{}{}Macro\discretionary {-}{}{}Use}{22}{subsubsection.2.8.3.44}}
\newlabel{classInterpreter_a21f12dfba08fdede6dca33856ec17081}{{2.8.3.44}{22}{\-\_\-\-Macro\-Use\relax }{subsubsection.2.8.3.44}{}}
\@writefile{toc}{\contentsline {subsubsection}{\numberline {2.8.3.45}\discretionary {-}{}{}\_\discretionary {-}{}{}\discretionary {-}{}{}Number}{22}{subsubsection.2.8.3.45}}
\newlabel{classInterpreter_aabd87a9d2c48b01bd4283f5b6a67ba87}{{2.8.3.45}{22}{\-\_\-\-Number\relax }{subsubsection.2.8.3.45}{}}
\@writefile{toc}{\contentsline {subsubsection}{\numberline {2.8.3.46}\discretionary {-}{}{}\_\discretionary {-}{}{}\discretionary {-}{}{}Num\discretionary {-}{}{}R}{22}{subsubsection.2.8.3.46}}
\newlabel{classInterpreter_a79b9ebd0d72d0a8811d87a6a6498d068}{{2.8.3.46}{22}{\-\_\-\-Num\-R\relax }{subsubsection.2.8.3.46}{}}
\@writefile{toc}{\contentsline {subsubsection}{\numberline {2.8.3.47}\discretionary {-}{}{}\_\discretionary {-}{}{}\discretionary {-}{}{}Operand}{22}{subsubsection.2.8.3.47}}
\newlabel{classInterpreter_ad56688abd0e43e89fae1d987d5b3a804}{{2.8.3.47}{22}{\-\_\-\-Operand\relax }{subsubsection.2.8.3.47}{}}
\@writefile{toc}{\contentsline {subsubsection}{\numberline {2.8.3.48}\discretionary {-}{}{}\_\discretionary {-}{}{}\discretionary {-}{}{}Operator}{22}{subsubsection.2.8.3.48}}
\newlabel{classInterpreter_a5923127abc0c57f859b6b8e64909352e}{{2.8.3.48}{22}{\-\_\-\-Operator\relax }{subsubsection.2.8.3.48}{}}
\@writefile{toc}{\contentsline {subsubsection}{\numberline {2.8.3.49}\discretionary {-}{}{}\_\discretionary {-}{}{}\discretionary {-}{}{}Peculiar\discretionary {-}{}{}Identifier}{22}{subsubsection.2.8.3.49}}
\newlabel{classInterpreter_a21e5eda55faacfcc262257621544c6ce}{{2.8.3.49}{22}{\-\_\-\-Peculiar\-Identifier\relax }{subsubsection.2.8.3.49}{}}
\@writefile{toc}{\contentsline {subsubsection}{\numberline {2.8.3.50}\discretionary {-}{}{}\_\discretionary {-}{}{}\discretionary {-}{}{}Prefix\discretionary {-}{}{}R}{23}{subsubsection.2.8.3.50}}
\newlabel{classInterpreter_abe754991d13c6fcaa667322413fe6305}{{2.8.3.50}{23}{\-\_\-\-Prefix\-R\relax }{subsubsection.2.8.3.50}{}}
\@writefile{toc}{\contentsline {subsubsection}{\numberline {2.8.3.51}\discretionary {-}{}{}\_\discretionary {-}{}{}\discretionary {-}{}{}Procedure\discretionary {-}{}{}Call}{23}{subsubsection.2.8.3.51}}
\newlabel{classInterpreter_ab4f763652193932da67c095df0e3a193}{{2.8.3.51}{23}{\-\_\-\-Procedure\-Call\relax }{subsubsection.2.8.3.51}{}}
\@writefile{toc}{\contentsline {subsubsection}{\numberline {2.8.3.52}\discretionary {-}{}{}\_\discretionary {-}{}{}\discretionary {-}{}{}Program}{23}{subsubsection.2.8.3.52}}
\newlabel{classInterpreter_a4e82377bb8d5b2ad52177941d4370d49}{{2.8.3.52}{23}{\-\_\-\-Program\relax }{subsubsection.2.8.3.52}{}}
\@writefile{toc}{\contentsline {subsubsection}{\numberline {2.8.3.53}\discretionary {-}{}{}\_\discretionary {-}{}{}\discretionary {-}{}{}Program\discretionary {-}{}{}With\discretionary {-}{}{}Output}{23}{subsubsection.2.8.3.53}}
\newlabel{classInterpreter_a39290193a1ea2830c70bc3208d89f07a}{{2.8.3.53}{23}{\-\_\-\-Program\-With\-Output\relax }{subsubsection.2.8.3.53}{}}
\@writefile{toc}{\contentsline {subsubsection}{\numberline {2.8.3.54}\discretionary {-}{}{}\_\discretionary {-}{}{}\discretionary {-}{}{}Quotation}{23}{subsubsection.2.8.3.54}}
\newlabel{classInterpreter_a11d6c5e284d8fe150cc046bba34a58a5}{{2.8.3.54}{23}{\-\_\-\-Quotation\relax }{subsubsection.2.8.3.54}{}}
\@writefile{toc}{\contentsline {subsubsection}{\numberline {2.8.3.55}\discretionary {-}{}{}\_\discretionary {-}{}{}\discretionary {-}{}{}Radix\discretionary {-}{}{}R}{23}{subsubsection.2.8.3.55}}
\newlabel{classInterpreter_a0806978234612f4da49d028adf617741}{{2.8.3.55}{23}{\-\_\-\-Radix\-R\relax }{subsubsection.2.8.3.55}{}}
\@writefile{toc}{\contentsline {subsubsection}{\numberline {2.8.3.56}\discretionary {-}{}{}\_\discretionary {-}{}{}\discretionary {-}{}{}Real\discretionary {-}{}{}R}{23}{subsubsection.2.8.3.56}}
\newlabel{classInterpreter_a7342057626eb7e4a860aba94c1deb75d}{{2.8.3.56}{23}{\-\_\-\-Real\-R\relax }{subsubsection.2.8.3.56}{}}
\@writefile{toc}{\contentsline {subsubsection}{\numberline {2.8.3.57}\discretionary {-}{}{}\_\discretionary {-}{}{}\discretionary {-}{}{}Recipient}{24}{subsubsection.2.8.3.57}}
\newlabel{classInterpreter_a6e878dceeaaa76af3bb442484b35c1cf}{{2.8.3.57}{24}{\-\_\-\-Recipient\relax }{subsubsection.2.8.3.57}{}}
\@writefile{toc}{\contentsline {subsubsection}{\numberline {2.8.3.58}\discretionary {-}{}{}\_\discretionary {-}{}{}\discretionary {-}{}{}Self\discretionary {-}{}{}Evaluating}{24}{subsubsection.2.8.3.58}}
\newlabel{classInterpreter_ad94ebb1c2310a17c0bdb9b75044d2e27}{{2.8.3.58}{24}{\-\_\-\-Self\-Evaluating\relax }{subsubsection.2.8.3.58}{}}
\@writefile{toc}{\contentsline {subsubsection}{\numberline {2.8.3.59}\discretionary {-}{}{}\_\discretionary {-}{}{}\discretionary {-}{}{}Sequence}{24}{subsubsection.2.8.3.59}}
\newlabel{classInterpreter_a71c74772688b0378dc6c139726fd51ec}{{2.8.3.59}{24}{\-\_\-\-Sequence\relax }{subsubsection.2.8.3.59}{}}
\@writefile{toc}{\contentsline {subsubsection}{\numberline {2.8.3.60}\discretionary {-}{}{}\_\discretionary {-}{}{}\discretionary {-}{}{}Sign}{24}{subsubsection.2.8.3.60}}
\newlabel{classInterpreter_abf24a641d56d8034fc30a233ef927485}{{2.8.3.60}{24}{\-\_\-\-Sign\relax }{subsubsection.2.8.3.60}{}}
\@writefile{toc}{\contentsline {subsubsection}{\numberline {2.8.3.61}\discretionary {-}{}{}\_\discretionary {-}{}{}\discretionary {-}{}{}Simple\discretionary {-}{}{}Datum}{24}{subsubsection.2.8.3.61}}
\newlabel{classInterpreter_a2434c02f1cb577003260eda1d230107d}{{2.8.3.61}{24}{\-\_\-\-Simple\-Datum\relax }{subsubsection.2.8.3.61}{}}
\@writefile{toc}{\contentsline {subsubsection}{\numberline {2.8.3.62}\discretionary {-}{}{}\_\discretionary {-}{}{}\discretionary {-}{}{}Special\discretionary {-}{}{}Initial}{24}{subsubsection.2.8.3.62}}
\newlabel{classInterpreter_abf18fc0bc37455a0acdda826feae41b5}{{2.8.3.62}{24}{\-\_\-\-Special\-Initial\relax }{subsubsection.2.8.3.62}{}}
\@writefile{toc}{\contentsline {subsubsection}{\numberline {2.8.3.63}\discretionary {-}{}{}\_\discretionary {-}{}{}\discretionary {-}{}{}Special\discretionary {-}{}{}Subsequent}{24}{subsubsection.2.8.3.63}}
\newlabel{classInterpreter_abfb126700b7de798e1da7d5ffd9b7745}{{2.8.3.63}{24}{\-\_\-\-Special\-Subsequent\relax }{subsubsection.2.8.3.63}{}}
\@writefile{toc}{\contentsline {subsubsection}{\numberline {2.8.3.64}\discretionary {-}{}{}\_\discretionary {-}{}{}\discretionary {-}{}{}Step}{24}{subsubsection.2.8.3.64}}
\newlabel{classInterpreter_a556cdc09cb10a6fd6a1e715c582e270b}{{2.8.3.64}{24}{\-\_\-\-Step\relax }{subsubsection.2.8.3.64}{}}
\@writefile{toc}{\contentsline {subsubsection}{\numberline {2.8.3.65}\discretionary {-}{}{}\_\discretionary {-}{}{}\discretionary {-}{}{}String}{25}{subsubsection.2.8.3.65}}
\newlabel{classInterpreter_ae86168d368c731150d30129ba3e4df61}{{2.8.3.65}{25}{\-\_\-\-String\relax }{subsubsection.2.8.3.65}{}}
\@writefile{toc}{\contentsline {subsubsection}{\numberline {2.8.3.66}\discretionary {-}{}{}\_\discretionary {-}{}{}\discretionary {-}{}{}String\discretionary {-}{}{}Element}{25}{subsubsection.2.8.3.66}}
\newlabel{classInterpreter_a91122977a34c60a37e048954daf676b2}{{2.8.3.66}{25}{\-\_\-\-String\-Element\relax }{subsubsection.2.8.3.66}{}}
\@writefile{toc}{\contentsline {subsubsection}{\numberline {2.8.3.67}\discretionary {-}{}{}\_\discretionary {-}{}{}\discretionary {-}{}{}Subsequent}{25}{subsubsection.2.8.3.67}}
\newlabel{classInterpreter_ac55421d93bbc2045d299d3b81389c867}{{2.8.3.67}{25}{\-\_\-\-Subsequent\relax }{subsubsection.2.8.3.67}{}}
\@writefile{toc}{\contentsline {subsubsection}{\numberline {2.8.3.68}\discretionary {-}{}{}\_\discretionary {-}{}{}\discretionary {-}{}{}Suffix}{25}{subsubsection.2.8.3.68}}
\newlabel{classInterpreter_aec0c871f1c6e46004ee23f602186fd02}{{2.8.3.68}{25}{\-\_\-\-Suffix\relax }{subsubsection.2.8.3.68}{}}
\@writefile{toc}{\contentsline {subsubsection}{\numberline {2.8.3.69}\discretionary {-}{}{}\_\discretionary {-}{}{}\discretionary {-}{}{}Symbol}{25}{subsubsection.2.8.3.69}}
\newlabel{classInterpreter_a58d9742667b614a0831f2a931b91ae34}{{2.8.3.69}{25}{\-\_\-\-Symbol\relax }{subsubsection.2.8.3.69}{}}
\@writefile{toc}{\contentsline {subsubsection}{\numberline {2.8.3.70}\discretionary {-}{}{}\_\discretionary {-}{}{}\discretionary {-}{}{}Syntantic\discretionary {-}{}{}Keyword}{25}{subsubsection.2.8.3.70}}
\newlabel{classInterpreter_a86b1703fea559dd1d878273c29eff93d}{{2.8.3.70}{25}{\-\_\-\-Syntantic\-Keyword\relax }{subsubsection.2.8.3.70}{}}
\@writefile{toc}{\contentsline {subsubsection}{\numberline {2.8.3.71}\discretionary {-}{}{}\_\discretionary {-}{}{}\discretionary {-}{}{}Syntax\discretionary {-}{}{}Definition}{25}{subsubsection.2.8.3.71}}
\newlabel{classInterpreter_a46fa3fe9773ed655a823098d0f39c80c}{{2.8.3.71}{25}{\-\_\-\-Syntax\-Definition\relax }{subsubsection.2.8.3.71}{}}
\@writefile{toc}{\contentsline {subsubsection}{\numberline {2.8.3.72}\discretionary {-}{}{}\_\discretionary {-}{}{}\discretionary {-}{}{}Syntax\discretionary {-}{}{}Spec}{25}{subsubsection.2.8.3.72}}
\newlabel{classInterpreter_af787583416c01fbed6e18011d46d58a6}{{2.8.3.72}{25}{\-\_\-\-Syntax\-Spec\relax }{subsubsection.2.8.3.72}{}}
\@writefile{toc}{\contentsline {subsubsection}{\numberline {2.8.3.73}\discretionary {-}{}{}\_\discretionary {-}{}{}\discretionary {-}{}{}Test}{26}{subsubsection.2.8.3.73}}
\newlabel{classInterpreter_a5e037f6640af7696fc4d8da369b14a89}{{2.8.3.73}{26}{\-\_\-\-Test\relax }{subsubsection.2.8.3.73}{}}
\@writefile{toc}{\contentsline {subsubsection}{\numberline {2.8.3.74}\discretionary {-}{}{}\_\discretionary {-}{}{}\discretionary {-}{}{}Token}{26}{subsubsection.2.8.3.74}}
\newlabel{classInterpreter_a7087e8f25fcc29551986896d407990db}{{2.8.3.74}{26}{\-\_\-\-Token\relax }{subsubsection.2.8.3.74}{}}
\@writefile{toc}{\contentsline {subsubsection}{\numberline {2.8.3.75}\discretionary {-}{}{}\_\discretionary {-}{}{}\discretionary {-}{}{}U\discretionary {-}{}{}Integer\discretionary {-}{}{}R}{26}{subsubsection.2.8.3.75}}
\newlabel{classInterpreter_a010f8b0a45afdf4422cc0096e4be7195}{{2.8.3.75}{26}{\-\_\-\-U\-Integer\-R\relax }{subsubsection.2.8.3.75}{}}
\@writefile{toc}{\contentsline {subsubsection}{\numberline {2.8.3.76}\discretionary {-}{}{}\_\discretionary {-}{}{}\discretionary {-}{}{}U\discretionary {-}{}{}Real\discretionary {-}{}{}R}{26}{subsubsection.2.8.3.76}}
\newlabel{classInterpreter_ae24d69e41329b931c5abec5661d6e70c}{{2.8.3.76}{26}{\-\_\-\-U\-Real\-R\relax }{subsubsection.2.8.3.76}{}}
\@writefile{toc}{\contentsline {subsubsection}{\numberline {2.8.3.77}\discretionary {-}{}{}\_\discretionary {-}{}{}\discretionary {-}{}{}Variable}{26}{subsubsection.2.8.3.77}}
\newlabel{classInterpreter_aaa442ff610160f936e9c5f47bfbc507f}{{2.8.3.77}{26}{\-\_\-\-Variable\relax }{subsubsection.2.8.3.77}{}}
\@writefile{toc}{\contentsline {subsubsection}{\numberline {2.8.3.78}\discretionary {-}{}{}\_\discretionary {-}{}{}\discretionary {-}{}{}Vector}{26}{subsubsection.2.8.3.78}}
\newlabel{classInterpreter_a3fb67265b927a17dbb6223d9e55ea19c}{{2.8.3.78}{26}{\-\_\-\-Vector\relax }{subsubsection.2.8.3.78}{}}
\@writefile{toc}{\contentsline {subsubsection}{\numberline {2.8.3.79}\discretionary {-}{}{}\_\discretionary {-}{}{}\discretionary {-}{}{}Whitespace}{26}{subsubsection.2.8.3.79}}
\newlabel{classInterpreter_a4586d813ab70cf3ea9f5ecd0ac57d686}{{2.8.3.79}{26}{\-\_\-\-Whitespace\relax }{subsubsection.2.8.3.79}{}}
\@writefile{toc}{\contentsline {subsubsection}{\numberline {2.8.3.80}char\discretionary {-}{}{}O\discretionary {-}{}{}R}{26}{subsubsection.2.8.3.80}}
\newlabel{classInterpreter_a19a4b766a220a280f24e05feebe1c0ce}{{2.8.3.80}{26}{char\-O\-R\relax }{subsubsection.2.8.3.80}{}}
\@writefile{toc}{\contentsline {subsubsection}{\numberline {2.8.3.81}entry}{27}{subsubsection.2.8.3.81}}
\newlabel{classInterpreter_ac8109c0650acac277586ca3d939feba0}{{2.8.3.81}{27}{entry\relax }{subsubsection.2.8.3.81}{}}
\@writefile{toc}{\contentsline {subsubsection}{\numberline {2.8.3.82}run}{27}{subsubsection.2.8.3.82}}
\newlabel{classInterpreter_a54baaf23264ecf2324a32e9fa45137ff}{{2.8.3.82}{27}{run\relax }{subsubsection.2.8.3.82}{}}
\@writefile{toc}{\contentsline {subsubsection}{\numberline {2.8.3.83}string\discretionary {-}{}{}O\discretionary {-}{}{}R}{27}{subsubsection.2.8.3.83}}
\newlabel{classInterpreter_a09c0f23be8152d5ea29686c08b3b7866}{{2.8.3.83}{27}{string\-O\-R\relax }{subsubsection.2.8.3.83}{}}
\@writefile{toc}{\contentsline {section}{\numberline {2.9}Proc Class Reference}{27}{section.2.9}}
\newlabel{classProc}{{2.9}{27}{Proc Class Reference\relax }{section.2.9}{}}
\newlabel{classProc_ad81509c6df656605ad4a958098570290}{{2.9}{27}{Public Member Functions\relax }{section*.16}{}}
\newlabel{classProc_a460fed3f9013e5a5e8ea7e937ac288aa}{{2.9}{27}{Public Member Functions\relax }{section*.16}{}}
\newlabel{classProc_aebfd760d79cf0ec6b9bad8a3456378fd}{{2.9}{27}{Public Member Functions\relax }{section*.16}{}}
\newlabel{classProc_af757998c4f2ba409555354324c4dbd3e}{{2.9}{27}{Public Member Functions\relax }{section*.16}{}}
\newlabel{classProc_ad99617c70bb5b758b5c84b27958ba468}{{2.9}{28}{Public Attributes\relax }{section*.17}{}}
\newlabel{classProc_a5cd9776de3adf5dac03aea25f2657777}{{2.9}{28}{Public Attributes\relax }{section*.17}{}}
\newlabel{classProc_ac88982a30add72eb52c9e3edbab189d4}{{2.9}{28}{Public Attributes\relax }{section*.17}{}}
\newlabel{classProc_a6be115f1991c69dd0c16dd93a97b4aa4}{{2.9}{28}{Public Attributes\relax }{section*.17}{}}
\newlabel{classProc_ae004be186e6ec37dfaffe666ef7817d4}{{2.9}{28}{Public Attributes\relax }{section*.17}{}}
\@writefile{toc}{\contentsline {subsection}{\numberline {2.9.1}Detailed Description}{28}{subsection.2.9.1}}
\@writefile{toc}{\contentsline {subsection}{\numberline {2.9.2}Constructor \& Destructor Documentation}{28}{subsection.2.9.2}}
\@writefile{toc}{\contentsline {subsubsection}{\numberline {2.9.2.1}Proc}{28}{subsubsection.2.9.2.1}}
\newlabel{classProc_ac848bb3f065295ac4a0c397d20ab56cf}{{2.9.2.1}{28}{Proc\relax }{subsubsection.2.9.2.1}{}}
\@writefile{toc}{\contentsline {subsubsection}{\numberline {2.9.2.2}Proc}{28}{subsubsection.2.9.2.2}}
\newlabel{classProc_ab232bfef1e07b3b419f2d21e18e668eb}{{2.9.2.2}{28}{Proc\relax }{subsubsection.2.9.2.2}{}}
\@writefile{toc}{\contentsline {subsubsection}{\numberline {2.9.2.3}Proc}{28}{subsubsection.2.9.2.3}}
\newlabel{classProc_afbad68de00619f241012e3fc81527892}{{2.9.2.3}{28}{Proc\relax }{subsubsection.2.9.2.3}{}}
\@writefile{toc}{\contentsline {subsubsection}{\numberline {2.9.2.4}Proc}{28}{subsubsection.2.9.2.4}}
\newlabel{classProc_a3d81b2e3a7bcb9e9fb06c7c22291b669}{{2.9.2.4}{28}{Proc\relax }{subsubsection.2.9.2.4}{}}
\@writefile{toc}{\contentsline {section}{\numberline {2.10}ref\discretionary {-}{}{}Var Class Reference}{28}{section.2.10}}
\newlabel{classrefVar}{{2.10}{28}{ref\-Var Class Reference\relax }{section.2.10}{}}
\newlabel{classrefVar_a64b0186a385a76a43c34fbf6f192218c}{{2.10}{29}{Public Member Functions\relax }{section*.18}{}}
\newlabel{classrefVar_a7db0e57ffa67cd03018213f50efbf20d}{{2.10}{29}{Public Member Functions\relax }{section*.18}{}}
\newlabel{classrefVar_a89d0ad1f3120d1d38527e7bf30097eff}{{2.10}{29}{Public Attributes\relax }{section*.19}{}}
\@writefile{toc}{\contentsline {subsection}{\numberline {2.10.1}Detailed Description}{29}{subsection.2.10.1}}
\@writefile{toc}{\contentsline {subsection}{\numberline {2.10.2}Constructor \& Destructor Documentation}{29}{subsection.2.10.2}}
\@writefile{toc}{\contentsline {subsubsection}{\numberline {2.10.2.1}ref\discretionary {-}{}{}Var}{29}{subsubsection.2.10.2.1}}
\newlabel{classrefVar_a16dd0b6752e4ca4ee3e0abc5b3411349}{{2.10.2.1}{29}{ref\-Var\relax }{subsubsection.2.10.2.1}{}}
\@writefile{toc}{\contentsline {subsubsection}{\numberline {2.10.2.2}ref\discretionary {-}{}{}Var}{29}{subsubsection.2.10.2.2}}
\newlabel{classrefVar_a5d524169399a517f727ae9ac27f5375a}{{2.10.2.2}{29}{ref\-Var\relax }{subsubsection.2.10.2.2}{}}
\@writefile{toc}{\contentsline {subsubsection}{\numberline {2.10.2.3}$\sim $ref\discretionary {-}{}{}Var}{29}{subsubsection.2.10.2.3}}
\newlabel{classrefVar_a4b14fb1165405cf7f0009617ba36dca5}{{2.10.2.3}{29}{$\sim $ref\-Var\relax }{subsubsection.2.10.2.3}{}}
\@writefile{toc}{\contentsline {subsection}{\numberline {2.10.3}Member Function Documentation}{29}{subsection.2.10.3}}
\@writefile{toc}{\contentsline {subsubsection}{\numberline {2.10.3.1}operator=}{29}{subsubsection.2.10.3.1}}
\newlabel{classrefVar_aa2eae34ba77cfe84dba6b13a8d2aa647}{{2.10.3.1}{29}{operator=\relax }{subsubsection.2.10.3.1}{}}
\@writefile{toc}{\contentsline {section}{\numberline {2.11}Rtl\discretionary {-}{}{}Complex Class Reference}{30}{section.2.11}}
\newlabel{classRtlComplex}{{2.11}{30}{Rtl\-Complex Class Reference\relax }{section.2.11}{}}
\newlabel{classRtlComplex_ac293f76f379aef1144df6cc3b503c1d9}{{2.11}{30}{Public Member Functions\relax }{section*.20}{}}
\newlabel{classRtlComplex_a2c2600a12247aeb46fe5eef44897752d}{{2.11}{30}{Public Member Functions\relax }{section*.20}{}}
\newlabel{classRtlComplex_afb6726c42b199ea87ecb33412e3f9981}{{2.11}{30}{Public Member Functions\relax }{section*.20}{}}
\newlabel{classRtlComplex_aa59d6b72b2a6e273b14db3b6ac3ab10e}{{2.11}{30}{Public Member Functions\relax }{section*.20}{}}
\newlabel{classRtlComplex_aa039c9502dc21115a11ffa0ad20dd046}{{2.11}{30}{Public Member Functions\relax }{section*.20}{}}
\newlabel{classRtlComplex_ad2fb2bb8057cb109ca53759fa0867ca7}{{2.11}{30}{Public Member Functions\relax }{section*.20}{}}
\newlabel{classRtlComplex_a6ba7fdd057cbca308a04cfa498fb8e7f}{{2.11}{30}{Public Member Functions\relax }{section*.20}{}}
\newlabel{classRtlComplex_ace508bd457ab234c9887d74731a896bc}{{2.11}{30}{Public Member Functions\relax }{section*.20}{}}
\newlabel{classRtlComplex_a9d957e304f054a520efa14da851c9a28}{{2.11}{30}{Public Member Functions\relax }{section*.20}{}}
\newlabel{classRtlComplex_a10e5329efbbef185c9533764e070c811}{{2.11}{30}{Public Member Functions\relax }{section*.20}{}}
\newlabel{classRtlComplex_a5661f1e871f87737c129c789c5b40650}{{2.11}{30}{Public Member Functions\relax }{section*.20}{}}
\newlabel{classRtlComplex_ad790c837f96ef608c1567eb5778f51ef}{{2.11}{30}{Public Member Functions\relax }{section*.20}{}}
\newlabel{classRtlComplex_a500a55e2325678fbf66c1cbd93d41593}{{2.11}{30}{Public Member Functions\relax }{section*.20}{}}
\newlabel{classRtlComplex_a121baeee081071917a9baa31fc6e905c}{{2.11}{30}{Public Member Functions\relax }{section*.20}{}}
\newlabel{classRtlComplex_a61ccc6025e5df3c49fdc1e1f4f0a1c9c}{{2.11}{30}{Public Member Functions\relax }{section*.20}{}}
\newlabel{classRtlComplex_ae7f13b02370558e24721af20e67beb72}{{2.11}{30}{Public Member Functions\relax }{section*.20}{}}
\newlabel{classRtlComplex_a420957e652b98bbb613614189a9f48fe}{{2.11}{30}{Public Member Functions\relax }{section*.20}{}}
\newlabel{classRtlComplex_aedee4b8013e17d869403aa25ba4e6bef}{{2.11}{30}{Public Member Functions\relax }{section*.20}{}}
\newlabel{classRtlComplex_a693e09e0cb7a9b84fc28d27a359c4513}{{2.11}{31}{Public Attributes\relax }{section*.21}{}}
\newlabel{classRtlComplex_a38cbe1252abc6fd2151c3df40a8f48f0}{{2.11}{31}{Public Attributes\relax }{section*.21}{}}
\@writefile{toc}{\contentsline {subsection}{\numberline {2.11.1}Detailed Description}{31}{subsection.2.11.1}}
\@writefile{toc}{\contentsline {subsection}{\numberline {2.11.2}Constructor \& Destructor Documentation}{31}{subsection.2.11.2}}
\@writefile{toc}{\contentsline {subsubsection}{\numberline {2.11.2.1}Rtl\discretionary {-}{}{}Complex}{31}{subsubsection.2.11.2.1}}
\newlabel{classRtlComplex_affc56560c3af2416297b83cf82754b11}{{2.11.2.1}{31}{Rtl\-Complex\relax }{subsubsection.2.11.2.1}{}}
\@writefile{toc}{\contentsline {subsubsection}{\numberline {2.11.2.2}Rtl\discretionary {-}{}{}Complex}{31}{subsubsection.2.11.2.2}}
\newlabel{classRtlComplex_a30cf5e7cbbf075b7f2a08b017cbc988d}{{2.11.2.2}{31}{Rtl\-Complex\relax }{subsubsection.2.11.2.2}{}}
\@writefile{toc}{\contentsline {subsubsection}{\numberline {2.11.2.3}Rtl\discretionary {-}{}{}Complex}{31}{subsubsection.2.11.2.3}}
\newlabel{classRtlComplex_ae1d76064d2768dd546f399c5057f3e9d}{{2.11.2.3}{31}{Rtl\-Complex\relax }{subsubsection.2.11.2.3}{}}
\@writefile{toc}{\contentsline {section}{\numberline {2.12}Symbol Class Reference}{31}{section.2.12}}
\newlabel{classSymbol}{{2.12}{31}{Symbol Class Reference\relax }{section.2.12}{}}
\newlabel{classSymbol_a10bcfc87045b9f2670b7b8a78b269682}{{2.12}{31}{Public Member Functions\relax }{section*.22}{}}
\newlabel{classSymbol_aa04005377178a9d687c3f4d7d29ab23a}{{2.12}{31}{Public Member Functions\relax }{section*.22}{}}
\newlabel{classSymbol_a31bc0a9f3fd9743a9fb9b1461ee7ae5c}{{2.12}{32}{Public Attributes\relax }{section*.23}{}}
\@writefile{toc}{\contentsline {subsection}{\numberline {2.12.1}Detailed Description}{32}{subsection.2.12.1}}
\@writefile{toc}{\contentsline {subsection}{\numberline {2.12.2}Constructor \& Destructor Documentation}{32}{subsection.2.12.2}}
\@writefile{toc}{\contentsline {subsubsection}{\numberline {2.12.2.1}Symbol}{32}{subsubsection.2.12.2.1}}
\newlabel{classSymbol_a9bb4fb952a2f62228b34fd5ff45ca108}{{2.12.2.1}{32}{Symbol\relax }{subsubsection.2.12.2.1}{}}
\@writefile{toc}{\contentsline {subsubsection}{\numberline {2.12.2.2}Symbol}{32}{subsubsection.2.12.2.2}}
\newlabel{classSymbol_a4d0efea23105c1afdbb6c3891dbe12fe}{{2.12.2.2}{32}{Symbol\relax }{subsubsection.2.12.2.2}{}}
\@writefile{toc}{\contentsline {section}{\numberline {2.13}var Class Reference}{32}{section.2.13}}
\newlabel{classvar}{{2.13}{32}{var Class Reference\relax }{section.2.13}{}}
\newlabel{classvar_ab7940b28db0cc2c3b2e1987b896e4903}{{2.13}{33}{Public Member Functions\relax }{section*.24}{}}
\newlabel{classvar_aea608853f068018954a04e6592b208a3}{{2.13}{33}{Public Member Functions\relax }{section*.24}{}}
\newlabel{classvar_a1f8f75cfacdc7b1e6e9deac1a970b30d}{{2.13}{33}{Public Member Functions\relax }{section*.24}{}}
\newlabel{classvar_a30c52fd9d3c3997f5d220721a1a7e186}{{2.13}{34}{Public Member Functions\relax }{section*.24}{}}
\newlabel{classvar_ab5a22fd92c9730b6222346d57c1cece9}{{2.13}{34}{Public Member Functions\relax }{section*.24}{}}
\newlabel{classvar_a4359c084ea68eb8fb002ae830544ca0e}{{2.13}{34}{Public Member Functions\relax }{section*.24}{}}
\newlabel{classvar_a6c75dbdfcb0043a6ab63691cc382e4d0}{{2.13}{35}{Public Attributes\relax }{section*.25}{}}
\newlabel{classvar_a461db1a937e9272f04128e4ca46b8530}{{2.13}{35}{Public Attributes\relax }{section*.25}{}}
\newlabel{classvar_ac682a91c2728d2f52992213ab33c5675}{{2.13}{35}{Public Attributes\relax }{section*.25}{}}
\newlabel{classvar_aa1f2f1d246f0aedc5061ef2827343726}{{2.13}{35}{Public Attributes\relax }{section*.25}{}}
\@writefile{toc}{\contentsline {subsection}{\numberline {2.13.1}Detailed Description}{35}{subsection.2.13.1}}
\@writefile{toc}{\contentsline {subsection}{\numberline {2.13.2}Constructor \& Destructor Documentation}{35}{subsection.2.13.2}}
\@writefile{toc}{\contentsline {subsubsection}{\numberline {2.13.2.1}var}{35}{subsubsection.2.13.2.1}}
\newlabel{classvar_af87bf2817f89678071ac7588a85a7f36}{{2.13.2.1}{35}{var\relax }{subsubsection.2.13.2.1}{}}
\@writefile{toc}{\contentsline {subsubsection}{\numberline {2.13.2.2}var}{35}{subsubsection.2.13.2.2}}
\newlabel{classvar_a15207d03b790b23054e28c3d821695da}{{2.13.2.2}{35}{var\relax }{subsubsection.2.13.2.2}{}}
\@writefile{toc}{\contentsline {subsubsection}{\numberline {2.13.2.3}var}{35}{subsubsection.2.13.2.3}}
\newlabel{classvar_a35d4260ba707c830de2d43c4c29da684}{{2.13.2.3}{35}{var\relax }{subsubsection.2.13.2.3}{}}
\@writefile{toc}{\contentsline {subsubsection}{\numberline {2.13.2.4}var}{35}{subsubsection.2.13.2.4}}
\newlabel{classvar_a5b033eb7b4762e78348e7340d03776ea}{{2.13.2.4}{35}{var\relax }{subsubsection.2.13.2.4}{}}
\@writefile{toc}{\contentsline {subsubsection}{\numberline {2.13.2.5}var}{35}{subsubsection.2.13.2.5}}
\newlabel{classvar_a15002e751ab9bd9ae0257790542c09f2}{{2.13.2.5}{35}{var\relax }{subsubsection.2.13.2.5}{}}
\@writefile{toc}{\contentsline {subsubsection}{\numberline {2.13.2.6}var}{35}{subsubsection.2.13.2.6}}
\newlabel{classvar_ad1dff3cd898b4e1d81c88744d2add9df}{{2.13.2.6}{35}{var\relax }{subsubsection.2.13.2.6}{}}
\@writefile{toc}{\contentsline {subsubsection}{\numberline {2.13.2.7}var}{36}{subsubsection.2.13.2.7}}
\newlabel{classvar_a0df6011cb4cef6d9652028e23a1b5b86}{{2.13.2.7}{36}{var\relax }{subsubsection.2.13.2.7}{}}
\@writefile{toc}{\contentsline {subsubsection}{\numberline {2.13.2.8}var}{36}{subsubsection.2.13.2.8}}
\newlabel{classvar_a4479f794c69681b9b9b88073aca9edc0}{{2.13.2.8}{36}{var\relax }{subsubsection.2.13.2.8}{}}
\@writefile{toc}{\contentsline {subsubsection}{\numberline {2.13.2.9}var}{36}{subsubsection.2.13.2.9}}
\newlabel{classvar_a2757076ba0bea69dc2143df4385d4d2b}{{2.13.2.9}{36}{var\relax }{subsubsection.2.13.2.9}{}}
\@writefile{toc}{\contentsline {subsubsection}{\numberline {2.13.2.10}var}{36}{subsubsection.2.13.2.10}}
\newlabel{classvar_afd417b5a0affebdcdb2c612a4fb6c2b6}{{2.13.2.10}{36}{var\relax }{subsubsection.2.13.2.10}{}}
\@writefile{toc}{\contentsline {subsubsection}{\numberline {2.13.2.11}var}{36}{subsubsection.2.13.2.11}}
\newlabel{classvar_a5f11353fb15cd6889fe8f02b29c44a61}{{2.13.2.11}{36}{var\relax }{subsubsection.2.13.2.11}{}}
\@writefile{toc}{\contentsline {subsubsection}{\numberline {2.13.2.12}var}{36}{subsubsection.2.13.2.12}}
\newlabel{classvar_ae8454ec85c87db735fd0b1d804efad7c}{{2.13.2.12}{36}{var\relax }{subsubsection.2.13.2.12}{}}
\@writefile{toc}{\contentsline {subsubsection}{\numberline {2.13.2.13}var}{36}{subsubsection.2.13.2.13}}
\newlabel{classvar_aeecb43d2c258513d12f95b50024aad87}{{2.13.2.13}{36}{var\relax }{subsubsection.2.13.2.13}{}}
\@writefile{toc}{\contentsline {subsubsection}{\numberline {2.13.2.14}var}{36}{subsubsection.2.13.2.14}}
\newlabel{classvar_a27cd982f919357df35ad3a9975968943}{{2.13.2.14}{36}{var\relax }{subsubsection.2.13.2.14}{}}
\@writefile{toc}{\contentsline {subsubsection}{\numberline {2.13.2.15}var}{36}{subsubsection.2.13.2.15}}
\newlabel{classvar_ac4970e1e4c98a775143d5d9a3b42860a}{{2.13.2.15}{36}{var\relax }{subsubsection.2.13.2.15}{}}
\@writefile{toc}{\contentsline {subsubsection}{\numberline {2.13.2.16}$\sim $var}{37}{subsubsection.2.13.2.16}}
\newlabel{classvar_ac7d2944f98e9772ab540050ae22fe9d1}{{2.13.2.16}{37}{$\sim $var\relax }{subsubsection.2.13.2.16}{}}
\@writefile{toc}{\contentsline {subsection}{\numberline {2.13.3}Member Function Documentation}{37}{subsection.2.13.3}}
\@writefile{toc}{\contentsline {subsubsection}{\numberline {2.13.3.1}add\discretionary {-}{}{}Arg}{37}{subsubsection.2.13.3.1}}
\newlabel{classvar_a0dc3614f074e82f2a317afc82fe41c84}{{2.13.3.1}{37}{add\-Arg\relax }{subsubsection.2.13.3.1}{}}
\@writefile{toc}{\contentsline {subsubsection}{\numberline {2.13.3.2}append}{37}{subsubsection.2.13.3.2}}
\newlabel{classvar_a9be38af6c2222d3125d3ed1e2e076351}{{2.13.3.2}{37}{append\relax }{subsubsection.2.13.3.2}{}}
\@writefile{toc}{\contentsline {subsubsection}{\numberline {2.13.3.3}append\discretionary {-}{}{}List}{37}{subsubsection.2.13.3.3}}
\newlabel{classvar_a82cb9d45aecfaeb8868c5a901766db96}{{2.13.3.3}{37}{append\-List\relax }{subsubsection.2.13.3.3}{}}
\@writefile{toc}{\contentsline {subsubsection}{\numberline {2.13.3.4}conjugate}{37}{subsubsection.2.13.3.4}}
\newlabel{classvar_ada995c72b6efd91f87d29c72a17c1eb6}{{2.13.3.4}{37}{conjugate\relax }{subsubsection.2.13.3.4}{}}
\@writefile{toc}{\contentsline {subsubsection}{\numberline {2.13.3.5}copy}{37}{subsubsection.2.13.3.5}}
\newlabel{classvar_a75cdfb938607f7b26cce0a5db398ae68}{{2.13.3.5}{37}{copy\relax }{subsubsection.2.13.3.5}{}}
\@writefile{toc}{\contentsline {subsubsection}{\numberline {2.13.3.6}float\discretionary {-}{}{}Range}{37}{subsubsection.2.13.3.6}}
\newlabel{classvar_af7360ebe7e2aa972ef0832d47e472093}{{2.13.3.6}{37}{float\-Range\relax }{subsubsection.2.13.3.6}{}}
\@writefile{toc}{\contentsline {subsubsection}{\numberline {2.13.3.7}get\discretionary {-}{}{}Imag}{37}{subsubsection.2.13.3.7}}
\newlabel{classvar_a9a3612d5134bd24ae336f4dec22a3e5b}{{2.13.3.7}{37}{get\-Imag\relax }{subsubsection.2.13.3.7}{}}
\@writefile{toc}{\contentsline {subsubsection}{\numberline {2.13.3.8}get\discretionary {-}{}{}Real}{37}{subsubsection.2.13.3.8}}
\newlabel{classvar_a1888371f2fff989612890bb4415765ca}{{2.13.3.8}{37}{get\-Real\relax }{subsubsection.2.13.3.8}{}}
\@writefile{toc}{\contentsline {subsubsection}{\numberline {2.13.3.9}operator bool}{38}{subsubsection.2.13.3.9}}
\newlabel{classvar_a2fd06de41a9f9f60a0432fbd7e868c74}{{2.13.3.9}{38}{operator bool\relax }{subsubsection.2.13.3.9}{}}
\@writefile{toc}{\contentsline {subsubsection}{\numberline {2.13.3.10}operator char}{38}{subsubsection.2.13.3.10}}
\newlabel{classvar_ab564a7d316b60dd3d5a5e6fb6eef1243}{{2.13.3.10}{38}{operator char\relax }{subsubsection.2.13.3.10}{}}
\@writefile{toc}{\contentsline {subsubsection}{\numberline {2.13.3.11}operator Complex}{38}{subsubsection.2.13.3.11}}
\newlabel{classvar_a1010b60d420e317fb96125183a2c047b}{{2.13.3.11}{38}{operator Complex\relax }{subsubsection.2.13.3.11}{}}
\@writefile{toc}{\contentsline {subsubsection}{\numberline {2.13.3.12}operator Empty}{38}{subsubsection.2.13.3.12}}
\newlabel{classvar_a650f5a412bf970b672a76be45d041465}{{2.13.3.12}{38}{operator Empty\relax }{subsubsection.2.13.3.12}{}}
\@writefile{toc}{\contentsline {subsubsection}{\numberline {2.13.3.13}operator Empty\discretionary {-}{}{}List}{38}{subsubsection.2.13.3.13}}
\newlabel{classvar_a1eb199501f063d93b4e94dc94cd67bf0}{{2.13.3.13}{38}{operator Empty\-List\relax }{subsubsection.2.13.3.13}{}}
\@writefile{toc}{\contentsline {subsubsection}{\numberline {2.13.3.14}operator mpf\discretionary {-}{}{}\_\discretionary {-}{}{}class}{38}{subsubsection.2.13.3.14}}
\newlabel{classvar_a6fb8a4b8fd90de76fd08aa7ab590415a}{{2.13.3.14}{38}{operator mpf\-\_\-class\relax }{subsubsection.2.13.3.14}{}}
\@writefile{toc}{\contentsline {subsubsection}{\numberline {2.13.3.15}operator mpq\discretionary {-}{}{}\_\discretionary {-}{}{}class}{38}{subsubsection.2.13.3.15}}
\newlabel{classvar_a73cb66d6852745ffa90efdfb3c9d5f68}{{2.13.3.15}{38}{operator mpq\-\_\-class\relax }{subsubsection.2.13.3.15}{}}
\@writefile{toc}{\contentsline {subsubsection}{\numberline {2.13.3.16}operator Pair}{38}{subsubsection.2.13.3.16}}
\newlabel{classvar_acb588513daa42ecec1640ab95dd91a40}{{2.13.3.16}{38}{operator Pair\relax }{subsubsection.2.13.3.16}{}}
\@writefile{toc}{\contentsline {subsubsection}{\numberline {2.13.3.17}operator Proc}{38}{subsubsection.2.13.3.17}}
\newlabel{classvar_aaf19fe3b8bda58fd1f6fbb9e34babb2a}{{2.13.3.17}{38}{operator Proc\relax }{subsubsection.2.13.3.17}{}}
\@writefile{toc}{\contentsline {subsubsection}{\numberline {2.13.3.18}operator Rtl\discretionary {-}{}{}Complex}{39}{subsubsection.2.13.3.18}}
\newlabel{classvar_aa9df58a45cb6fdc0968407e5e5e9c4b1}{{2.13.3.18}{39}{operator Rtl\-Complex\relax }{subsubsection.2.13.3.18}{}}
\@writefile{toc}{\contentsline {subsubsection}{\numberline {2.13.3.19}operator string}{39}{subsubsection.2.13.3.19}}
\newlabel{classvar_a61de20fa14bae30ce55b1aef9871d274}{{2.13.3.19}{39}{operator string\relax }{subsubsection.2.13.3.19}{}}
\@writefile{toc}{\contentsline {subsubsection}{\numberline {2.13.3.20}operator Symbol}{39}{subsubsection.2.13.3.20}}
\newlabel{classvar_a45011c4d7b5c1dd21f4b761f9e412f89}{{2.13.3.20}{39}{operator Symbol\relax }{subsubsection.2.13.3.20}{}}
\@writefile{toc}{\contentsline {subsubsection}{\numberline {2.13.3.21}operator Vector}{39}{subsubsection.2.13.3.21}}
\newlabel{classvar_a070c10e3ca66b4e62b51f68b46403a65}{{2.13.3.21}{39}{operator Vector\relax }{subsubsection.2.13.3.21}{}}
\@writefile{toc}{\contentsline {subsubsection}{\numberline {2.13.3.22}operator!=}{39}{subsubsection.2.13.3.22}}
\newlabel{classvar_af41cd35709345794fb6ad3783582233d}{{2.13.3.22}{39}{operator!=\relax }{subsubsection.2.13.3.22}{}}
\@writefile{toc}{\contentsline {subsubsection}{\numberline {2.13.3.23}operator\%}{39}{subsubsection.2.13.3.23}}
\newlabel{classvar_a032cac3393b1bc4e2fb004e485d2084b}{{2.13.3.23}{39}{operator\%\relax }{subsubsection.2.13.3.23}{}}
\@writefile{toc}{\contentsline {subsubsection}{\numberline {2.13.3.24}operator$<$}{39}{subsubsection.2.13.3.24}}
\newlabel{classvar_a0bcf18b9b73beb3ee087cc98673b56a8}{{2.13.3.24}{39}{operator$<$\relax }{subsubsection.2.13.3.24}{}}
\@writefile{toc}{\contentsline {subsubsection}{\numberline {2.13.3.25}operator$<$=}{39}{subsubsection.2.13.3.25}}
\newlabel{classvar_abf030eaa1fb7e51dc430b6a8a9e5eaa2}{{2.13.3.25}{39}{operator$<$=\relax }{subsubsection.2.13.3.25}{}}
\@writefile{toc}{\contentsline {subsubsection}{\numberline {2.13.3.26}operator=}{39}{subsubsection.2.13.3.26}}
\newlabel{classvar_aa302b95cb21a34fa1ebaca392827a0cc}{{2.13.3.26}{39}{operator=\relax }{subsubsection.2.13.3.26}{}}
\@writefile{toc}{\contentsline {subsubsection}{\numberline {2.13.3.27}operator==}{40}{subsubsection.2.13.3.27}}
\newlabel{classvar_a4bf7a4efc31473a7fc1e36e0547834f9}{{2.13.3.27}{40}{operator==\relax }{subsubsection.2.13.3.27}{}}
\@writefile{toc}{\contentsline {subsubsection}{\numberline {2.13.3.28}operator$>$}{40}{subsubsection.2.13.3.28}}
\newlabel{classvar_ae875f9234ed12865a2d3a642c7a3b596}{{2.13.3.28}{40}{operator$>$\relax }{subsubsection.2.13.3.28}{}}
\@writefile{toc}{\contentsline {subsubsection}{\numberline {2.13.3.29}operator$>$=}{40}{subsubsection.2.13.3.29}}
\newlabel{classvar_ac53448477299bb49293a1b1dfa230198}{{2.13.3.29}{40}{operator$>$=\relax }{subsubsection.2.13.3.29}{}}
\@writefile{toc}{\contentsline {subsubsection}{\numberline {2.13.3.30}set\discretionary {-}{}{}Code}{40}{subsubsection.2.13.3.30}}
\newlabel{classvar_ad242e114fadd853375302d684bb321fc}{{2.13.3.30}{40}{set\-Code\relax }{subsubsection.2.13.3.30}{}}
\@writefile{toc}{\contentsline {subsubsection}{\numberline {2.13.3.31}set\discretionary {-}{}{}First}{40}{subsubsection.2.13.3.31}}
\newlabel{classvar_af59b38fb3b4b18105b4554de1a635a0e}{{2.13.3.31}{40}{set\-First\relax }{subsubsection.2.13.3.31}{}}
\@writefile{toc}{\contentsline {subsubsection}{\numberline {2.13.3.32}set\discretionary {-}{}{}List\discretionary {-}{}{}Arg}{40}{subsubsection.2.13.3.32}}
\newlabel{classvar_a97aa84212d3116157a4e55cdd0c5574a}{{2.13.3.32}{40}{set\-List\-Arg\relax }{subsubsection.2.13.3.32}{}}
\@writefile{toc}{\contentsline {subsubsection}{\numberline {2.13.3.33}set\discretionary {-}{}{}Second}{40}{subsubsection.2.13.3.33}}
\newlabel{classvar_ad1e57a934f59733f2e432836bdb233e7}{{2.13.3.33}{40}{set\-Second\relax }{subsubsection.2.13.3.33}{}}
\@writefile{toc}{\contentsline {subsubsection}{\numberline {2.13.3.34}vec\discretionary {-}{}{}Clear}{40}{subsubsection.2.13.3.34}}
\newlabel{classvar_a90129beff9e2c0e573353d381de2b670}{{2.13.3.34}{40}{vec\-Clear\relax }{subsubsection.2.13.3.34}{}}
\@writefile{toc}{\contentsline {subsubsection}{\numberline {2.13.3.35}vec\discretionary {-}{}{}Get}{40}{subsubsection.2.13.3.35}}
\newlabel{classvar_a28935be779d1189e403e5c5bcd562fe4}{{2.13.3.35}{40}{vec\-Get\relax }{subsubsection.2.13.3.35}{}}
\@writefile{toc}{\contentsline {subsubsection}{\numberline {2.13.3.36}vec\discretionary {-}{}{}Push\discretionary {-}{}{}Back}{41}{subsubsection.2.13.3.36}}
\newlabel{classvar_a8f35dff992871b009afc456b11f5abb6}{{2.13.3.36}{41}{vec\-Push\-Back\relax }{subsubsection.2.13.3.36}{}}
\@writefile{toc}{\contentsline {part}{Index}{42}{section*.26}}
