digraph "Interpreter::_DefFormals"
{
  edge [fontname="Helvetica",fontsize="10",labelfontname="Helvetica",labelfontsize="10"];
  node [fontname="Helvetica",fontsize="10",shape=record];
  rankdir="LR";
  Node1 [label="Interpreter::_DefFormals",height=0.2,width=0.4,color="black", fillcolor="grey75", style="filled" fontcolor="black"];
  Node1 -> Node2 [color="midnightblue",fontsize="10",style="solid",fontname="Helvetica"];
  Node2 [label="var::addArg",height=0.2,width=0.4,color="black", fillcolor="white", style="filled",URL="$classvar.html#a0dc3614f074e82f2a317afc82fe41c84",tooltip="Add a argument to the formal arguments list. "];
  Node2 -> Node3 [color="midnightblue",fontsize="10",style="solid",fontname="Helvetica"];
  Node3 [label="Exception::errorOperator",height=0.2,width=0.4,color="black", fillcolor="white", style="filled",URL="$classException.html#a172fe610de9a3d076daa74d38d061ccd",tooltip="Predefined type of exception. "];
  Node3 -> Node4 [color="midnightblue",fontsize="10",style="solid",fontname="Helvetica"];
  Node4 [label="Exception::Exception",height=0.2,width=0.4,color="black", fillcolor="white", style="filled",URL="$classException.html#a1b78336bb26edf8e784783cc150c5801",tooltip="Default constructor. "];
  Node2 -> Node5 [color="midnightblue",fontsize="10",style="solid",fontname="Helvetica"];
  Node5 [label="var::typeName",height=0.2,width=0.4,color="black", fillcolor="white", style="filled",URL="$classvar.html#aea608853f068018954a04e6592b208a3",tooltip="Get the type name generated by typeid(). "];
  Node1 -> Node6 [color="midnightblue",fontsize="10",style="solid",fontname="Helvetica"];
  Node6 [label="var::setListArg",height=0.2,width=0.4,color="black", fillcolor="white", style="filled",URL="$classvar.html#a97aa84212d3116157a4e55cdd0c5574a",tooltip="Set the list-argument for the unlimited arguments list. "];
}
