digraph "Interpreter"
{
  edge [fontname="Helvetica",fontsize="10",labelfontname="Helvetica",labelfontsize="10"];
  node [fontname="Helvetica",fontsize="10",shape=record];
  Node1 [label="{Interpreter\n|+ digitSet2\l+ digitSet8\l+ digitSet10\l+ digitSet16\l|+ Interpreter()\l+ ~Interpreter()\l+ entry()\l+ run()\l+ lowercase()\l+ charOR()\l+ stringOR()\l+ _Token()\l+ _Delimiter()\l+ _Whitespace()\l+ _Comment()\l+ _Atmosphere()\land 84 more...\l}",height=0.2,width=0.4,color="black", fillcolor="grey75", style="filled" fontcolor="black"];
}
