digraph "refVar"
{
  edge [fontname="Helvetica",fontsize="10",labelfontname="Helvetica",labelfontsize="10"];
  node [fontname="Helvetica",fontsize="10",shape=record];
  Node1 [label="refVar",height=0.2,width=0.4,color="black", fillcolor="grey75", style="filled" fontcolor="black"];
  Node2 -> Node1 [dir="back",color="darkorchid3",fontsize="10",style="dashed",label=" ptr" ,fontname="Helvetica"];
  Node2 [label="var",height=0.2,width=0.4,color="black", fillcolor="white", style="filled",URL="$classvar.html",tooltip="Class of weak type object. "];
}
