digraph "var::operator Vector"
{
  edge [fontname="Helvetica",fontsize="10",labelfontname="Helvetica",labelfontsize="10"];
  node [fontname="Helvetica",fontsize="10",shape=record];
  rankdir="LR";
  Node1 [label="var::operator Vector",height=0.2,width=0.4,color="black", fillcolor="grey75", style="filled" fontcolor="black"];
  Node1 -> Node2 [color="midnightblue",fontsize="10",style="solid",fontname="Helvetica"];
  Node2 [label="Exception::errorConvert",height=0.2,width=0.4,color="black", fillcolor="white", style="filled",URL="$classException.html#ab9583ca3756cea52f4ac316a79e529dd",tooltip="Predefined type of exception. "];
  Node2 -> Node3 [color="midnightblue",fontsize="10",style="solid",fontname="Helvetica"];
  Node3 [label="Exception::Exception",height=0.2,width=0.4,color="black", fillcolor="white", style="filled",URL="$classException.html#a1b78336bb26edf8e784783cc150c5801",tooltip="Default constructor. "];
}
